%!PS-Adobe-3.0 EPSF-3.0
%%Creator: (MATLAB, The Mathworks, Inc. Version 9.5.0.944444 \(R2018b\). Operating System: Mac OS X)
%%Title: /Users/mebratuwakeni/Desktop/MatlabQuadsHexes/non_uniform_adaptive.eps
%%CreationDate: 2020-10-26T20:10:20
%%Pages: (atend)
%%BoundingBox: 0 0 560 420
%%LanguageLevel: 3
%%EndComments
%%BeginProlog
%%BeginResource: procset (Apache XML Graphics Std ProcSet) 1.2 0
%%Version: 1.2 0
%%Copyright: (Copyright 2001-2003,2010 The Apache Software Foundation. License terms: http://www.apache.org/licenses/LICENSE-2.0)
/bd{bind def}bind def
/ld{load def}bd
/GR/grestore ld
/GS/gsave ld
/RM/rmoveto ld
/C/curveto ld
/t/show ld
/L/lineto ld
/ML/setmiterlimit ld
/CT/concat ld
/f/fill ld
/N/newpath ld
/S/stroke ld
/CC/setcmykcolor ld
/A/ashow ld
/cp/closepath ld
/RC/setrgbcolor ld
/LJ/setlinejoin ld
/GC/setgray ld
/LW/setlinewidth ld
/M/moveto ld
/re {4 2 roll M
1 index 0 rlineto
0 exch rlineto
neg 0 rlineto
cp } bd
/_ctm matrix def
/_tm matrix def
/BT { _ctm currentmatrix pop matrix _tm copy pop 0 0 moveto } bd
/ET { _ctm setmatrix } bd
/iTm { _ctm setmatrix _tm concat } bd
/Tm { _tm astore pop iTm 0 0 moveto } bd
/ux 0.0 def
/uy 0.0 def
/F {
  /Tp exch def
  /Tf exch def
  Tf findfont Tp scalefont setfont
  /cf Tf def  /cs Tp def
} bd
/ULS {currentpoint /uy exch def /ux exch def} bd
/ULE {
  /Tcx currentpoint pop def
  gsave
  newpath
  cf findfont cs scalefont dup
  /FontMatrix get 0 get /Ts exch def /FontInfo get dup
  /UnderlinePosition get Ts mul /To exch def
  /UnderlineThickness get Ts mul /Tt exch def
  ux uy To add moveto  Tcx uy To add lineto
  Tt setlinewidth stroke
  grestore
} bd
/OLE {
  /Tcx currentpoint pop def
  gsave
  newpath
  cf findfont cs scalefont dup
  /FontMatrix get 0 get /Ts exch def /FontInfo get dup
  /UnderlinePosition get Ts mul /To exch def
  /UnderlineThickness get Ts mul /Tt exch def
  ux uy To add cs add moveto Tcx uy To add cs add lineto
  Tt setlinewidth stroke
  grestore
} bd
/SOE {
  /Tcx currentpoint pop def
  gsave
  newpath
  cf findfont cs scalefont dup
  /FontMatrix get 0 get /Ts exch def /FontInfo get dup
  /UnderlinePosition get Ts mul /To exch def
  /UnderlineThickness get Ts mul /Tt exch def
  ux uy To add cs 10 mul 26 idiv add moveto Tcx uy To add cs 10 mul 26 idiv add lineto
  Tt setlinewidth stroke
  grestore
} bd
/QT {
/Y22 exch store
/X22 exch store
/Y21 exch store
/X21 exch store
currentpoint
/Y21 load 2 mul add 3 div exch
/X21 load 2 mul add 3 div exch
/X21 load 2 mul /X22 load add 3 div
/Y21 load 2 mul /Y22 load add 3 div
/X22 load /Y22 load curveto
} bd
/SSPD {
dup length /d exch dict def
{
/v exch def
/k exch def
currentpagedevice k known {
/cpdv currentpagedevice k get def
v cpdv ne {
/upd false def
/nullv v type /nulltype eq def
/nullcpdv cpdv type /nulltype eq def
nullv nullcpdv or
{
/upd true def
} {
/sametype v type cpdv type eq def
sametype {
v type /arraytype eq {
/vlen v length def
/cpdvlen cpdv length def
vlen cpdvlen eq {
0 1 vlen 1 sub {
/i exch def
/obj v i get def
/cpdobj cpdv i get def
obj cpdobj ne {
/upd true def
exit
} if
} for
} {
/upd true def
} ifelse
} {
v type /dicttype eq {
v {
/dv exch def
/dk exch def
/cpddv cpdv dk get def
dv cpddv ne {
/upd true def
exit
} if
} forall
} {
/upd true def
} ifelse
} ifelse
} if
} ifelse
upd true eq {
d k v put
} if
} if
} if
} forall
d length 0 gt {
d setpagedevice
} if
} bd
/RE { % /NewFontName [NewEncodingArray] /FontName RE -
  findfont dup length dict begin
  {
    1 index /FID ne
    {def} {pop pop} ifelse
  } forall
  /Encoding exch def
  /FontName 1 index def
  currentdict definefont pop
  end
} bind def
%%EndResource
%%BeginResource: procset (Apache XML Graphics EPS ProcSet) 1.0 0
%%Version: 1.0 0
%%Copyright: (Copyright 2002-2003 The Apache Software Foundation. License terms: http://www.apache.org/licenses/LICENSE-2.0)
/BeginEPSF { %def
/b4_Inc_state save def         % Save state for cleanup
/dict_count countdictstack def % Count objects on dict stack
/op_count count 1 sub def      % Count objects on operand stack
userdict begin                 % Push userdict on dict stack
/showpage { } def              % Redefine showpage, { } = null proc
0 setgray 0 setlinecap         % Prepare graphics state
1 setlinewidth 0 setlinejoin
10 setmiterlimit [ ] 0 setdash newpath
/languagelevel where           % If level not equal to 1 then
{pop languagelevel             % set strokeadjust and
1 ne                           % overprint to their defaults.
{false setstrokeadjust false setoverprint
} if
} if
} bd
/EndEPSF { %def
count op_count sub {pop} repeat            % Clean up stacks
countdictstack dict_count sub {end} repeat
b4_Inc_state restore
} bd
%%EndResource
%FOPBeginFontDict
%%IncludeResource: font Courier-Oblique
%%IncludeResource: font Courier-BoldOblique
%%IncludeResource: font Courier-Bold
%%IncludeResource: font ZapfDingbats
%%IncludeResource: font Symbol
%%IncludeResource: font Helvetica
%%IncludeResource: font Helvetica-Oblique
%%IncludeResource: font Helvetica-Bold
%%IncludeResource: font Helvetica-BoldOblique
%%IncludeResource: font Times-Roman
%%IncludeResource: font Times-Italic
%%IncludeResource: font Times-Bold
%%IncludeResource: font Times-BoldItalic
%%IncludeResource: font Courier
%FOPEndFontDict
%%BeginResource: encoding WinAnsiEncoding
/WinAnsiEncoding [
/.notdef /.notdef /.notdef /.notdef /.notdef
/.notdef /.notdef /.notdef /.notdef /.notdef
/.notdef /.notdef /.notdef /.notdef /.notdef
/.notdef /.notdef /.notdef /.notdef /.notdef
/.notdef /.notdef /.notdef /.notdef /.notdef
/.notdef /.notdef /.notdef /.notdef /.notdef
/.notdef /.notdef /space /exclam /quotedbl
/numbersign /dollar /percent /ampersand /quotesingle
/parenleft /parenright /asterisk /plus /comma
/hyphen /period /slash /zero /one
/two /three /four /five /six
/seven /eight /nine /colon /semicolon
/less /equal /greater /question /at
/A /B /C /D /E
/F /G /H /I /J
/K /L /M /N /O
/P /Q /R /S /T
/U /V /W /X /Y
/Z /bracketleft /backslash /bracketright /asciicircum
/underscore /quoteleft /a /b /c
/d /e /f /g /h
/i /j /k /l /m
/n /o /p /q /r
/s /t /u /v /w
/x /y /z /braceleft /bar
/braceright /asciitilde /bullet /Euro /bullet
/quotesinglbase /florin /quotedblbase /ellipsis /dagger
/daggerdbl /circumflex /perthousand /Scaron /guilsinglleft
/OE /bullet /Zcaron /bullet /bullet
/quoteleft /quoteright /quotedblleft /quotedblright /bullet
/endash /emdash /asciitilde /trademark /scaron
/guilsinglright /oe /bullet /zcaron /Ydieresis
/space /exclamdown /cent /sterling /currency
/yen /brokenbar /section /dieresis /copyright
/ordfeminine /guillemotleft /logicalnot /sfthyphen /registered
/macron /degree /plusminus /twosuperior /threesuperior
/acute /mu /paragraph /middot /cedilla
/onesuperior /ordmasculine /guillemotright /onequarter /onehalf
/threequarters /questiondown /Agrave /Aacute /Acircumflex
/Atilde /Adieresis /Aring /AE /Ccedilla
/Egrave /Eacute /Ecircumflex /Edieresis /Igrave
/Iacute /Icircumflex /Idieresis /Eth /Ntilde
/Ograve /Oacute /Ocircumflex /Otilde /Odieresis
/multiply /Oslash /Ugrave /Uacute /Ucircumflex
/Udieresis /Yacute /Thorn /germandbls /agrave
/aacute /acircumflex /atilde /adieresis /aring
/ae /ccedilla /egrave /eacute /ecircumflex
/edieresis /igrave /iacute /icircumflex /idieresis
/eth /ntilde /ograve /oacute /ocircumflex
/otilde /odieresis /divide /oslash /ugrave
/uacute /ucircumflex /udieresis /yacute /thorn
/ydieresis
] def
%%EndResource
%FOPBeginFontReencode
/Courier-Oblique findfont
dup length dict begin
  {1 index /FID ne {def} {pop pop} ifelse} forall
  /Encoding WinAnsiEncoding def
  currentdict
end
/Courier-Oblique exch definefont pop
/Courier-BoldOblique findfont
dup length dict begin
  {1 index /FID ne {def} {pop pop} ifelse} forall
  /Encoding WinAnsiEncoding def
  currentdict
end
/Courier-BoldOblique exch definefont pop
/Courier-Bold findfont
dup length dict begin
  {1 index /FID ne {def} {pop pop} ifelse} forall
  /Encoding WinAnsiEncoding def
  currentdict
end
/Courier-Bold exch definefont pop
/Helvetica findfont
dup length dict begin
  {1 index /FID ne {def} {pop pop} ifelse} forall
  /Encoding WinAnsiEncoding def
  currentdict
end
/Helvetica exch definefont pop
/Helvetica-Oblique findfont
dup length dict begin
  {1 index /FID ne {def} {pop pop} ifelse} forall
  /Encoding WinAnsiEncoding def
  currentdict
end
/Helvetica-Oblique exch definefont pop
/Helvetica-Bold findfont
dup length dict begin
  {1 index /FID ne {def} {pop pop} ifelse} forall
  /Encoding WinAnsiEncoding def
  currentdict
end
/Helvetica-Bold exch definefont pop
/Helvetica-BoldOblique findfont
dup length dict begin
  {1 index /FID ne {def} {pop pop} ifelse} forall
  /Encoding WinAnsiEncoding def
  currentdict
end
/Helvetica-BoldOblique exch definefont pop
/Times-Roman findfont
dup length dict begin
  {1 index /FID ne {def} {pop pop} ifelse} forall
  /Encoding WinAnsiEncoding def
  currentdict
end
/Times-Roman exch definefont pop
/Times-Italic findfont
dup length dict begin
  {1 index /FID ne {def} {pop pop} ifelse} forall
  /Encoding WinAnsiEncoding def
  currentdict
end
/Times-Italic exch definefont pop
/Times-Bold findfont
dup length dict begin
  {1 index /FID ne {def} {pop pop} ifelse} forall
  /Encoding WinAnsiEncoding def
  currentdict
end
/Times-Bold exch definefont pop
/Times-BoldItalic findfont
dup length dict begin
  {1 index /FID ne {def} {pop pop} ifelse} forall
  /Encoding WinAnsiEncoding def
  currentdict
end
/Times-BoldItalic exch definefont pop
/Courier findfont
dup length dict begin
  {1 index /FID ne {def} {pop pop} ifelse} forall
  /Encoding WinAnsiEncoding def
  currentdict
end
/Courier exch definefont pop
%FOPEndFontReencode
%%EndProlog
%%Page: 1 1
%%PageBoundingBox: 0 0 560 420
%%BeginPageSetup
[1 0 0 -1 0 420] CT
%%EndPageSetup
GS
1 GC
N
0 0 560 420 re
f
GR
GS
1 GC
N
0 0 560 420 re
f
GR
GS
1 GC
N
73 374 M
507 374 L
507 31.5 L
73 31.5 L
cp
f
GR
GS
0.149 GC
2 setlinecap
1 LJ
0.5 LW
N
73 374 M
507 374 L
S
GR
GS
0.149 GC
2 setlinecap
1 LJ
0.5 LW
N
73 31.5 M
507 31.5 L
S
GR
GS
0.149 GC
2 setlinecap
1 LJ
0.5 LW
N
180.252 374 M
180.252 369.66 L
S
GR
GS
0.149 GC
2 setlinecap
1 LJ
0.5 LW
N
275.944 374 M
275.944 369.66 L
S
GR
GS
0.149 GC
2 setlinecap
1 LJ
0.5 LW
N
343.838 374 M
343.838 369.66 L
S
GR
GS
0.149 GC
2 setlinecap
1 LJ
0.5 LW
N
396.502 374 M
396.502 369.66 L
S
GR
GS
0.149 GC
2 setlinecap
1 LJ
0.5 LW
N
439.531 374 M
439.531 369.66 L
S
GR
GS
0.149 GC
2 setlinecap
1 LJ
0.5 LW
N
475.911 374 M
475.911 369.66 L
S
GR
GS
0.149 GC
2 setlinecap
1 LJ
0.5 LW
N
180.252 31.5 M
180.252 35.84 L
S
GR
GS
0.149 GC
2 setlinecap
1 LJ
0.5 LW
N
275.944 31.5 M
275.944 35.84 L
S
GR
GS
0.149 GC
2 setlinecap
1 LJ
0.5 LW
N
343.838 31.5 M
343.838 35.84 L
S
GR
GS
0.149 GC
2 setlinecap
1 LJ
0.5 LW
N
396.502 31.5 M
396.502 35.84 L
S
GR
GS
0.149 GC
2 setlinecap
1 LJ
0.5 LW
N
439.531 31.5 M
439.531 35.84 L
S
GR
GS
0.149 GC
2 setlinecap
1 LJ
0.5 LW
N
475.911 31.5 M
475.911 35.84 L
S
GR
GS
0.149 GC
2 setlinecap
1 LJ
0.5 LW
N
96.074 374 M
96.074 371.83 L
S
GR
GS
0.149 GC
2 setlinecap
1 LJ
0.5 LW
N
127.589 374 M
127.589 371.83 L
S
GR
GS
0.149 GC
2 setlinecap
1 LJ
0.5 LW
N
155.386 374 M
155.386 371.83 L
S
GR
GS
0.149 GC
2 setlinecap
1 LJ
0.5 LW
N
202.745 374 M
202.745 371.83 L
S
GR
GS
0.149 GC
2 setlinecap
1 LJ
0.5 LW
N
223.281 374 M
223.281 371.83 L
S
GR
GS
0.149 GC
2 setlinecap
1 LJ
0.5 LW
N
242.171 374 M
242.171 371.83 L
S
GR
GS
0.149 GC
2 setlinecap
1 LJ
0.5 LW
N
259.661 374 M
259.661 371.83 L
S
GR
GS
0.149 GC
2 setlinecap
1 LJ
0.5 LW
N
291.175 374 M
291.175 371.83 L
S
GR
GS
0.149 GC
2 setlinecap
1 LJ
0.5 LW
N
305.483 374 M
305.483 371.83 L
S
GR
GS
0.149 GC
2 setlinecap
1 LJ
0.5 LW
N
318.973 374 M
318.973 371.83 L
S
GR
GS
0.149 GC
2 setlinecap
1 LJ
0.5 LW
N
331.733 374 M
331.733 371.83 L
S
GR
GS
0.149 GC
2 setlinecap
1 LJ
0.5 LW
N
355.353 374 M
355.353 371.83 L
S
GR
GS
0.149 GC
2 setlinecap
1 LJ
0.5 LW
N
366.332 374 M
366.332 371.83 L
S
GR
GS
0.149 GC
2 setlinecap
1 LJ
0.5 LW
N
376.823 374 M
376.823 371.83 L
S
GR
GS
0.149 GC
2 setlinecap
1 LJ
0.5 LW
N
386.867 374 M
386.867 371.83 L
S
GR
GS
0.149 GC
2 setlinecap
1 LJ
0.5 LW
N
405.758 374 M
405.758 371.83 L
S
GR
GS
0.149 GC
2 setlinecap
1 LJ
0.5 LW
N
414.665 374 M
414.665 371.83 L
S
GR
GS
0.149 GC
2 setlinecap
1 LJ
0.5 LW
N
423.248 374 M
423.248 371.83 L
S
GR
GS
0.149 GC
2 setlinecap
1 LJ
0.5 LW
N
431.53 374 M
431.53 371.83 L
S
GR
GS
0.149 GC
2 setlinecap
1 LJ
0.5 LW
N
447.269 374 M
447.269 371.83 L
S
GR
GS
0.149 GC
2 setlinecap
1 LJ
0.5 LW
N
454.762 374 M
454.762 371.83 L
S
GR
GS
0.149 GC
2 setlinecap
1 LJ
0.5 LW
N
462.024 374 M
462.024 371.83 L
S
GR
GS
0.149 GC
2 setlinecap
1 LJ
0.5 LW
N
469.07 374 M
469.07 371.83 L
S
GR
GS
0.149 GC
2 setlinecap
1 LJ
0.5 LW
N
482.56 374 M
482.56 371.83 L
S
GR
GS
0.149 GC
2 setlinecap
1 LJ
0.5 LW
N
489.026 374 M
489.026 371.83 L
S
GR
GS
0.149 GC
2 setlinecap
1 LJ
0.5 LW
N
495.32 374 M
495.32 371.83 L
S
GR
GS
0.149 GC
2 setlinecap
1 LJ
0.5 LW
N
501.45 374 M
501.45 371.83 L
S
GR
GS
0.149 GC
2 setlinecap
1 LJ
0.5 LW
N
96.074 31.5 M
96.074 33.67 L
S
GR
GS
0.149 GC
2 setlinecap
1 LJ
0.5 LW
N
127.589 31.5 M
127.589 33.67 L
S
GR
GS
0.149 GC
2 setlinecap
1 LJ
0.5 LW
N
155.386 31.5 M
155.386 33.67 L
S
GR
GS
0.149 GC
2 setlinecap
1 LJ
0.5 LW
N
202.745 31.5 M
202.745 33.67 L
S
GR
GS
0.149 GC
2 setlinecap
1 LJ
0.5 LW
N
223.281 31.5 M
223.281 33.67 L
S
GR
GS
0.149 GC
2 setlinecap
1 LJ
0.5 LW
N
242.171 31.5 M
242.171 33.67 L
S
GR
GS
0.149 GC
2 setlinecap
1 LJ
0.5 LW
N
259.661 31.5 M
259.661 33.67 L
S
GR
GS
0.149 GC
2 setlinecap
1 LJ
0.5 LW
N
291.175 31.5 M
291.175 33.67 L
S
GR
GS
0.149 GC
2 setlinecap
1 LJ
0.5 LW
N
305.483 31.5 M
305.483 33.67 L
S
GR
GS
0.149 GC
2 setlinecap
1 LJ
0.5 LW
N
318.973 31.5 M
318.973 33.67 L
S
GR
GS
0.149 GC
2 setlinecap
1 LJ
0.5 LW
N
331.733 31.5 M
331.733 33.67 L
S
GR
GS
0.149 GC
2 setlinecap
1 LJ
0.5 LW
N
355.353 31.5 M
355.353 33.67 L
S
GR
GS
0.149 GC
2 setlinecap
1 LJ
0.5 LW
N
366.332 31.5 M
366.332 33.67 L
S
GR
GS
0.149 GC
2 setlinecap
1 LJ
0.5 LW
N
376.823 31.5 M
376.823 33.67 L
S
GR
GS
0.149 GC
2 setlinecap
1 LJ
0.5 LW
N
386.867 31.5 M
386.867 33.67 L
S
GR
GS
0.149 GC
2 setlinecap
1 LJ
0.5 LW
N
405.758 31.5 M
405.758 33.67 L
S
GR
GS
0.149 GC
2 setlinecap
1 LJ
0.5 LW
N
414.665 31.5 M
414.665 33.67 L
S
GR
GS
0.149 GC
2 setlinecap
1 LJ
0.5 LW
N
423.248 31.5 M
423.248 33.67 L
S
GR
GS
0.149 GC
2 setlinecap
1 LJ
0.5 LW
N
431.53 31.5 M
431.53 33.67 L
S
GR
GS
0.149 GC
2 setlinecap
1 LJ
0.5 LW
N
447.269 31.5 M
447.269 33.67 L
S
GR
GS
0.149 GC
2 setlinecap
1 LJ
0.5 LW
N
454.762 31.5 M
454.762 33.67 L
S
GR
GS
0.149 GC
2 setlinecap
1 LJ
0.5 LW
N
462.024 31.5 M
462.024 33.67 L
S
GR
GS
0.149 GC
2 setlinecap
1 LJ
0.5 LW
N
469.07 31.5 M
469.07 33.67 L
S
GR
GS
0.149 GC
2 setlinecap
1 LJ
0.5 LW
N
482.56 31.5 M
482.56 33.67 L
S
GR
GS
0.149 GC
2 setlinecap
1 LJ
0.5 LW
N
489.026 31.5 M
489.026 33.67 L
S
GR
GS
0.149 GC
2 setlinecap
1 LJ
0.5 LW
N
495.32 31.5 M
495.32 33.67 L
S
GR
GS
0.149 GC
2 setlinecap
1 LJ
0.5 LW
N
501.45 31.5 M
501.45 33.67 L
S
GR
GS
[1 0 0 1 180.25171 378] CT
0.149 GC
/Helvetica 10 F
GS
[1 0 0 1 0 0] CT
-3 10 moveto 
1 -1 scale
(2) t 
GR
GR
GS
[1 0 0 1 275.94382 378] CT
0.149 GC
/Helvetica 10 F
GS
[1 0 0 1 0 0] CT
-3 10 moveto 
1 -1 scale
(3) t 
GR
GR
GS
[1 0 0 1 343.83847 378] CT
0.149 GC
/Helvetica 10 F
GS
[1 0 0 1 0 0] CT
-3 10 moveto 
1 -1 scale
(4) t 
GR
GR
GS
[1 0 0 1 396.50162 378] CT
0.149 GC
/Helvetica 10 F
GS
[1 0 0 1 0 0] CT
-3 10 moveto 
1 -1 scale
(5) t 
GR
GR
GS
[1 0 0 1 439.53058 378] CT
0.149 GC
/Helvetica 10 F
GS
[1 0 0 1 0 0] CT
-3 10 moveto 
1 -1 scale
(6) t 
GR
GR
GS
[1 0 0 1 475.91101 378] CT
0.149 GC
/Helvetica 10 F
GS
[1 0 0 1 0 0] CT
-3 10 moveto 
1 -1 scale
(7) t 
GR
GR
GS
[1 0 0 1 290.00021 391.5] CT
0.149 GC
/Helvetica 18 F
GS
[1 0 0 1 0 0] CT
-82 18 moveto 
1 -1 scale
(Degrees-of-freedom) t 
GR
GR
GS
[1 0 0 1 482 405] CT
0.149 GC
N
1.469 -0.281 M
1.469 -0.359 1.516 -0.438 QT
3.594 -2.5 L
1.516 -4.578 L
1.469 -4.625 1.469 -4.719 QT
1.469 -4.781 1.531 -4.844 QT
1.594 -4.906 1.672 -4.906 QT
1.734 -4.906 1.828 -4.844 QT
3.891 -2.781 L
5.953 -4.844 L
6.031 -4.906 6.094 -4.906 QT
6.188 -4.906 6.242 -4.852 QT
6.297 -4.797 6.297 -4.719 QT
6.297 -4.625 6.25 -4.578 QT
4.172 -2.5 L
6.25 -0.438 L
6.297 -0.359 6.297 -0.281 QT
6.297 -0.203 6.242 -0.148 QT
6.188 -0.094 6.094 -0.094 QT
6.031 -0.094 5.953 -0.156 QT
3.891 -2.219 L
1.828 -0.156 L
1.75 -0.094 1.672 -0.094 QT
1.594 -0.094 1.531 -0.156 QT
1.469 -0.219 1.469 -0.281 QT
cp
f
GR
GS
[1 0 0 1 490 405] CT
0.149 GC
/Helvetica 10 F
GS
[1 0 0 1 0 0] CT
0 0 moveto 
1 -1 scale
(10) t 
GR
GR
GS
[1 0 0 1 502 400] CT
0.149 GC
/Helvetica 8 F
GS
[1 0 0 1 0 0] CT
0 0 moveto 
1 -1 scale
(4) t 
GR
GR
GS
0.149 GC
2 setlinecap
1 LJ
0.5 LW
N
73 374 M
73 31.5 L
S
GR
GS
0.149 GC
2 setlinecap
1 LJ
0.5 LW
N
507 374 M
507 31.5 L
S
GR
GS
0.149 GC
2 setlinecap
1 LJ
0.5 LW
N
73 338.648 M
77.34 338.648 L
S
GR
GS
0.149 GC
2 setlinecap
1 LJ
0.5 LW
N
73 185.074 M
77.34 185.074 L
S
GR
GS
0.149 GC
2 setlinecap
1 LJ
0.5 LW
N
73 31.5 M
77.34 31.5 L
S
GR
GS
0.149 GC
2 setlinecap
1 LJ
0.5 LW
N
507 338.648 M
502.66 338.648 L
S
GR
GS
0.149 GC
2 setlinecap
1 LJ
0.5 LW
N
507 185.074 M
502.66 185.074 L
S
GR
GS
0.149 GC
2 setlinecap
1 LJ
0.5 LW
N
507 31.5 M
502.66 31.5 L
S
GR
GS
0.149 GC
2 setlinecap
1 LJ
0.5 LW
N
73 372.718 M
75.17 372.718 L
S
GR
GS
0.149 GC
2 setlinecap
1 LJ
0.5 LW
N
73 362.437 M
75.17 362.437 L
S
GR
GS
0.149 GC
2 setlinecap
1 LJ
0.5 LW
N
73 353.531 M
75.17 353.531 L
S
GR
GS
0.149 GC
2 setlinecap
1 LJ
0.5 LW
N
73 345.675 M
75.17 345.675 L
S
GR
GS
0.149 GC
2 setlinecap
1 LJ
0.5 LW
N
73 338.648 M
75.17 338.648 L
S
GR
GS
0.149 GC
2 setlinecap
1 LJ
0.5 LW
N
73 292.417 M
75.17 292.417 L
S
GR
GS
0.149 GC
2 setlinecap
1 LJ
0.5 LW
N
73 265.374 M
75.17 265.374 L
S
GR
GS
0.149 GC
2 setlinecap
1 LJ
0.5 LW
N
73 246.187 M
75.17 246.187 L
S
GR
GS
0.149 GC
2 setlinecap
1 LJ
0.5 LW
N
73 231.304 M
75.17 231.304 L
S
GR
GS
0.149 GC
2 setlinecap
1 LJ
0.5 LW
N
73 219.144 M
75.17 219.144 L
S
GR
GS
0.149 GC
2 setlinecap
1 LJ
0.5 LW
N
73 208.863 M
75.17 208.863 L
S
GR
GS
0.149 GC
2 setlinecap
1 LJ
0.5 LW
N
73 199.957 M
75.17 199.957 L
S
GR
GS
0.149 GC
2 setlinecap
1 LJ
0.5 LW
N
73 192.101 M
75.17 192.101 L
S
GR
GS
0.149 GC
2 setlinecap
1 LJ
0.5 LW
N
73 185.074 M
75.17 185.074 L
S
GR
GS
0.149 GC
2 setlinecap
1 LJ
0.5 LW
N
73 138.844 M
75.17 138.844 L
S
GR
GS
0.149 GC
2 setlinecap
1 LJ
0.5 LW
N
73 111.801 M
75.17 111.801 L
S
GR
GS
0.149 GC
2 setlinecap
1 LJ
0.5 LW
N
73 92.613 M
75.17 92.613 L
S
GR
GS
0.149 GC
2 setlinecap
1 LJ
0.5 LW
N
73 77.73 M
75.17 77.73 L
S
GR
GS
0.149 GC
2 setlinecap
1 LJ
0.5 LW
N
73 65.57 M
75.17 65.57 L
S
GR
GS
0.149 GC
2 setlinecap
1 LJ
0.5 LW
N
73 55.289 M
75.17 55.289 L
S
GR
GS
0.149 GC
2 setlinecap
1 LJ
0.5 LW
N
73 46.383 M
75.17 46.383 L
S
GR
GS
0.149 GC
2 setlinecap
1 LJ
0.5 LW
N
73 38.527 M
75.17 38.527 L
S
GR
GS
0.149 GC
2 setlinecap
1 LJ
0.5 LW
N
73 31.5 M
75.17 31.5 L
S
GR
GS
0.149 GC
2 setlinecap
1 LJ
0.5 LW
N
507 372.718 M
504.83 372.718 L
S
GR
GS
0.149 GC
2 setlinecap
1 LJ
0.5 LW
N
507 362.437 M
504.83 362.437 L
S
GR
GS
0.149 GC
2 setlinecap
1 LJ
0.5 LW
N
507 353.531 M
504.83 353.531 L
S
GR
GS
0.149 GC
2 setlinecap
1 LJ
0.5 LW
N
507 345.675 M
504.83 345.675 L
S
GR
GS
0.149 GC
2 setlinecap
1 LJ
0.5 LW
N
507 338.648 M
504.83 338.648 L
S
GR
GS
0.149 GC
2 setlinecap
1 LJ
0.5 LW
N
507 292.417 M
504.83 292.417 L
S
GR
GS
0.149 GC
2 setlinecap
1 LJ
0.5 LW
N
507 265.374 M
504.83 265.374 L
S
GR
GS
0.149 GC
2 setlinecap
1 LJ
0.5 LW
N
507 246.187 M
504.83 246.187 L
S
GR
GS
0.149 GC
2 setlinecap
1 LJ
0.5 LW
N
507 231.304 M
504.83 231.304 L
S
GR
GS
0.149 GC
2 setlinecap
1 LJ
0.5 LW
N
507 219.144 M
504.83 219.144 L
S
GR
GS
0.149 GC
2 setlinecap
1 LJ
0.5 LW
N
507 208.863 M
504.83 208.863 L
S
GR
GS
0.149 GC
2 setlinecap
1 LJ
0.5 LW
N
507 199.957 M
504.83 199.957 L
S
GR
GS
0.149 GC
2 setlinecap
1 LJ
0.5 LW
N
507 192.101 M
504.83 192.101 L
S
GR
GS
0.149 GC
2 setlinecap
1 LJ
0.5 LW
N
507 185.074 M
504.83 185.074 L
S
GR
GS
0.149 GC
2 setlinecap
1 LJ
0.5 LW
N
507 138.844 M
504.83 138.844 L
S
GR
GS
0.149 GC
2 setlinecap
1 LJ
0.5 LW
N
507 111.801 M
504.83 111.801 L
S
GR
GS
0.149 GC
2 setlinecap
1 LJ
0.5 LW
N
507 92.613 M
504.83 92.613 L
S
GR
GS
0.149 GC
2 setlinecap
1 LJ
0.5 LW
N
507 77.73 M
504.83 77.73 L
S
GR
GS
0.149 GC
2 setlinecap
1 LJ
0.5 LW
N
507 65.57 M
504.83 65.57 L
S
GR
GS
0.149 GC
2 setlinecap
1 LJ
0.5 LW
N
507 55.289 M
504.83 55.289 L
S
GR
GS
0.149 GC
2 setlinecap
1 LJ
0.5 LW
N
507 46.383 M
504.83 46.383 L
S
GR
GS
0.149 GC
2 setlinecap
1 LJ
0.5 LW
N
507 38.527 M
504.83 38.527 L
S
GR
GS
0.149 GC
2 setlinecap
1 LJ
0.5 LW
N
507 31.5 M
504.83 31.5 L
S
GR
GS
[1 0 0 1 49 344] CT
0.149 GC
/Helvetica 10 F
GS
[1 0 0 1 0 0] CT
0 0 moveto 
1 -1 scale
(10) t 
GR
GR
GS
[1 0 0 1 61 339] CT
0.149 GC
/Helvetica 8 F
GS
[1 0 0 1 0 0] CT
0 0 moveto 
1 -1 scale
(-1) t 
GR
GR
GS
[1 0 0 1 52 190] CT
0.149 GC
/Helvetica 10 F
GS
[1 0 0 1 0 0] CT
0 0 moveto 
1 -1 scale
(10) t 
GR
GR
GS
[1 0 0 1 64 185] CT
0.149 GC
/Helvetica 8 F
GS
[1 0 0 1 0 0] CT
0 0 moveto 
1 -1 scale
(0) t 
GR
GR
GS
[1 0 0 1 52 37] CT
0.149 GC
/Helvetica 10 F
GS
[1 0 0 1 0 0] CT
0 0 moveto 
1 -1 scale
(10) t 
GR
GR
GS
[1 0 0 1 64 32] CT
0.149 GC
/Helvetica 8 F
GS
[1 0 0 1 0 0] CT
0 0 moveto 
1 -1 scale
(1) t 
GR
GR
GS
[0 -1 1 0 46.5 202.74983] CT
0.149 GC
/Helvetica 18 F
GS
[1 0 0 1 0 0] CT
-20 -4 moveto 
1 -1 scale
(Error) t 
GR
GR
GS
1 0 1 RC
1 LJ
2 LW
N
73 95.783 M
224.301 165.485 L
338.468 197.25 L
430.24 269.867 L
507 300.81 L
S
GR
GS
[1 0 0 1 73 95.7825] CT
1 0 1 RC
10.0 ML
2 LW
N
-4.755 -1.545 M
-1.176 -1.545 L
0 -5 L
1.176 -1.545 L
4.755 -1.545 L
1.902 0.618 L
2.939 4.045 L
0 2 L
-2.939 4.045 L
-1.902 0.618 L
cp
S
GR
GS
[1 0 0 1 224.30115 165.48508] CT
1 0 1 RC
10.0 ML
2 LW
N
-4.755 -1.545 M
-1.176 -1.545 L
0 -5 L
1.176 -1.545 L
4.755 -1.545 L
1.902 0.618 L
2.939 4.045 L
0 2 L
-2.939 4.045 L
-1.902 0.618 L
cp
S
GR
GS
[1 0 0 1 338.46768 197.24974] CT
1 0 1 RC
10.0 ML
2 LW
N
-4.755 -1.545 M
-1.176 -1.545 L
0 -5 L
1.176 -1.545 L
4.755 -1.545 L
1.902 0.618 L
2.939 4.045 L
0 2 L
-2.939 4.045 L
-1.902 0.618 L
cp
S
GR
GS
[1 0 0 1 430.24026 269.86652] CT
1 0 1 RC
10.0 ML
2 LW
N
-4.755 -1.545 M
-1.176 -1.545 L
0 -5 L
1.176 -1.545 L
4.755 -1.545 L
1.902 0.618 L
2.939 4.045 L
0 2 L
-2.939 4.045 L
-1.902 0.618 L
cp
S
GR
GS
[1 0 0 1 507 300.81009] CT
1 0 1 RC
10.0 ML
2 LW
N
-4.755 -1.545 M
-1.176 -1.545 L
0 -5 L
1.176 -1.545 L
4.755 -1.545 L
1.902 0.618 L
2.939 4.045 L
0 2 L
-2.939 4.045 L
-1.902 0.618 L
cp
S
GR
GS
1 0 0 RC
[8 2 4 2] 0 setdash
2 LJ
2 LW
N
73 88.714 M
224.301 165.356 L
338.468 197.239 L
430.24 269.858 L
507 300.797 L
S
GR
GS
[1 0 0 1 73 88.71428] CT
1 0 0 RC
10.0 ML
2 LW
N
0 -5 M
0 5 L
-5 0 M
5 0 L
S
GR
GS
[1 0 0 1 224.30115 165.35565] CT
1 0 0 RC
10.0 ML
2 LW
N
0 -5 M
0 5 L
-5 0 M
5 0 L
S
GR
GS
[1 0 0 1 338.46768 197.23877] CT
1 0 0 RC
10.0 ML
2 LW
N
0 -5 M
0 5 L
-5 0 M
5 0 L
S
GR
GS
[1 0 0 1 430.24026 269.85846] CT
1 0 0 RC
10.0 ML
2 LW
N
0 -5 M
0 5 L
-5 0 M
5 0 L
S
GR
GS
[1 0 0 1 507 300.79684] CT
1 0 0 RC
10.0 ML
2 LW
N
0 -5 M
0 5 L
-5 0 M
5 0 L
S
GR
GS
0 0 1 RC
[8 8] 0 setdash
2 LJ
2 LW
N
92.268 87.574 M
160.753 197.701 L
290.629 278.292 L
332.867 348.33 L
365.149 374 L
S
GR
GS
1 LJ
2 LW
N
92.268 87.114 M
160.753 194.954 L
290.629 265.16 L
332.867 348.216 L
365.149 373.874 L
S
GR
GS
[1 0 0 1 92.26774 87.11449] CT
10.0 ML
2 LW
N
5 0 M
5 -2.761 2.761 -5 0 -5 C
-2.761 -5 -5 -2.761 -5 0 C
-5 2.761 -2.761 5 0 5 C
2.761 5 5 2.761 5 0 C
cp
S
GR
GS
[1 0 0 1 160.75267 194.95386] CT
10.0 ML
2 LW
N
5 0 M
5 -2.761 2.761 -5 0 -5 C
-2.761 -5 -5 -2.761 -5 0 C
-5 2.761 -2.761 5 0 5 C
2.761 5 5 2.761 5 0 C
cp
S
GR
GS
[1 0 0 1 290.62888 265.15973] CT
10.0 ML
2 LW
N
5 0 M
5 -2.761 2.761 -5 0 -5 C
-2.761 -5 -5 -2.761 -5 0 C
-5 2.761 -2.761 5 0 5 C
2.761 5 5 2.761 5 0 C
cp
S
GR
GS
[1 0 0 1 332.86676 348.21649] CT
10.0 ML
2 LW
N
5 0 M
5 -2.761 2.761 -5 0 -5 C
-2.761 -5 -5 -2.761 -5 0 C
-5 2.761 -2.761 5 0 5 C
2.761 5 5 2.761 5 0 C
cp
S
GR
GS
[1 0 0 1 365.14923 373.8743] CT
10.0 ML
2 LW
N
5 0 M
5 -2.761 2.761 -5 0 -5 C
-2.761 -5 -5 -2.761 -5 0 C
-5 2.761 -2.761 5 0 5 C
2.761 5 5 2.761 5 0 C
cp
S
GR
GS
1 GC
N
500.5 118 M
500.5 36.5 L
273 36.5 L
273 118 L
cp
f
GR
GS
[1 0 0 1 310 48] CT
/Helvetica 16 F
GS
[1 0 0 1 0 0] CT
0 6 moveto 
1 -1 scale
(True error) t 
GR
GR
GS
1 0 1 RC
1 LJ
2 LW
N
277 48 M
307 48 L
S
GR
GS
[1 0 0 1 292 48] CT
1 0 1 RC
10.0 ML
2 LW
N
-4.755 -1.545 M
-1.176 -1.545 L
0 -5 L
1.176 -1.545 L
4.755 -1.545 L
1.902 0.618 L
2.939 4.045 L
0 2 L
-2.939 4.045 L
-1.902 0.618 L
cp
S
GR
GS
[1 0 0 1 310 67.5] CT
/Helvetica 16 F
GS
[1 0 0 1 0 0] CT
0 6 moveto 
1 -1 scale
(A posteriori error) t 
GR
GR
GS
1 0 0 RC
[8 2 4 2] 0 setdash
2 LJ
2 LW
N
277 67.5 M
307 67.5 L
S
GR
GS
[1 0 0 1 292 67.5] CT
1 0 0 RC
10.0 ML
2 LW
N
0 -5 M
0 5 L
-5 0 M
5 0 L
S
GR
GS
[1 0 0 1 310 87] CT
/Helvetica 16 F
GS
[1 0 0 1 0 0] CT
0 6 moveto 
1 -1 scale
(True error \(0.5, 0.0\)) t 
GR
GR
GS
0 0 1 RC
[8 8] 0 setdash
2 LJ
2 LW
N
277 87 M
307 87 L
S
GR
GS
[1 0 0 1 310 106.5] CT
/Helvetica 16 F
GS
[1 0 0 1 0 0] CT
0 6 moveto 
1 -1 scale
(A posteriori error \(0.5, 0.0\)) t 
GR
GR
GS
1 LJ
2 LW
N
277 106.5 M
307 106.5 L
S
GR
GS
[1 0 0 1 292 106.5] CT
10.0 ML
2 LW
N
5 0 M
5 -2.761 2.761 -5 0 -5 C
-2.761 -5 -5 -2.761 -5 0 C
-5 2.761 -2.761 5 0 5 C
2.761 5 5 2.761 5 0 C
cp
S
GR
GS
0.149 GC
10.0 ML
0.5 LW
N
273 118 M
273 36.5 L
500.5 36.5 L
500.5 118 L
cp
S
GR
%%Trailer
%%Pages: 1
%%EOF
