%!PS-Adobe-3.0 EPSF-3.0
%%Creator: (MATLAB, The Mathworks, Inc. Version 9.5.0.944444 \(R2018b\). Operating System: Mac OS X)
%%Title: /Users/mebratuwakeni/repos/drafts/paper-1/images/uniform_adaptive.eps
%%CreationDate: 2020-10-28T15:54:48
%%Pages: (atend)
%%BoundingBox: 0 0 560 420
%%LanguageLevel: 3
%%EndComments
%%BeginProlog
%%BeginResource: procset (Apache XML Graphics Std ProcSet) 1.2 0
%%Version: 1.2 0
%%Copyright: (Copyright 2001-2003,2010 The Apache Software Foundation. License terms: http://www.apache.org/licenses/LICENSE-2.0)
/bd{bind def}bind def
/ld{load def}bd
/GR/grestore ld
/GS/gsave ld
/RM/rmoveto ld
/C/curveto ld
/t/show ld
/L/lineto ld
/ML/setmiterlimit ld
/CT/concat ld
/f/fill ld
/N/newpath ld
/S/stroke ld
/CC/setcmykcolor ld
/A/ashow ld
/cp/closepath ld
/RC/setrgbcolor ld
/LJ/setlinejoin ld
/GC/setgray ld
/LW/setlinewidth ld
/M/moveto ld
/re {4 2 roll M
1 index 0 rlineto
0 exch rlineto
neg 0 rlineto
cp } bd
/_ctm matrix def
/_tm matrix def
/BT { _ctm currentmatrix pop matrix _tm copy pop 0 0 moveto } bd
/ET { _ctm setmatrix } bd
/iTm { _ctm setmatrix _tm concat } bd
/Tm { _tm astore pop iTm 0 0 moveto } bd
/ux 0.0 def
/uy 0.0 def
/F {
  /Tp exch def
  /Tf exch def
  Tf findfont Tp scalefont setfont
  /cf Tf def  /cs Tp def
} bd
/ULS {currentpoint /uy exch def /ux exch def} bd
/ULE {
  /Tcx currentpoint pop def
  gsave
  newpath
  cf findfont cs scalefont dup
  /FontMatrix get 0 get /Ts exch def /FontInfo get dup
  /UnderlinePosition get Ts mul /To exch def
  /UnderlineThickness get Ts mul /Tt exch def
  ux uy To add moveto  Tcx uy To add lineto
  Tt setlinewidth stroke
  grestore
} bd
/OLE {
  /Tcx currentpoint pop def
  gsave
  newpath
  cf findfont cs scalefont dup
  /FontMatrix get 0 get /Ts exch def /FontInfo get dup
  /UnderlinePosition get Ts mul /To exch def
  /UnderlineThickness get Ts mul /Tt exch def
  ux uy To add cs add moveto Tcx uy To add cs add lineto
  Tt setlinewidth stroke
  grestore
} bd
/SOE {
  /Tcx currentpoint pop def
  gsave
  newpath
  cf findfont cs scalefont dup
  /FontMatrix get 0 get /Ts exch def /FontInfo get dup
  /UnderlinePosition get Ts mul /To exch def
  /UnderlineThickness get Ts mul /Tt exch def
  ux uy To add cs 10 mul 26 idiv add moveto Tcx uy To add cs 10 mul 26 idiv add lineto
  Tt setlinewidth stroke
  grestore
} bd
/QT {
/Y22 exch store
/X22 exch store
/Y21 exch store
/X21 exch store
currentpoint
/Y21 load 2 mul add 3 div exch
/X21 load 2 mul add 3 div exch
/X21 load 2 mul /X22 load add 3 div
/Y21 load 2 mul /Y22 load add 3 div
/X22 load /Y22 load curveto
} bd
/SSPD {
dup length /d exch dict def
{
/v exch def
/k exch def
currentpagedevice k known {
/cpdv currentpagedevice k get def
v cpdv ne {
/upd false def
/nullv v type /nulltype eq def
/nullcpdv cpdv type /nulltype eq def
nullv nullcpdv or
{
/upd true def
} {
/sametype v type cpdv type eq def
sametype {
v type /arraytype eq {
/vlen v length def
/cpdvlen cpdv length def
vlen cpdvlen eq {
0 1 vlen 1 sub {
/i exch def
/obj v i get def
/cpdobj cpdv i get def
obj cpdobj ne {
/upd true def
exit
} if
} for
} {
/upd true def
} ifelse
} {
v type /dicttype eq {
v {
/dv exch def
/dk exch def
/cpddv cpdv dk get def
dv cpddv ne {
/upd true def
exit
} if
} forall
} {
/upd true def
} ifelse
} ifelse
} if
} ifelse
upd true eq {
d k v put
} if
} if
} if
} forall
d length 0 gt {
d setpagedevice
} if
} bd
/RE { % /NewFontName [NewEncodingArray] /FontName RE -
  findfont dup length dict begin
  {
    1 index /FID ne
    {def} {pop pop} ifelse
  } forall
  /Encoding exch def
  /FontName 1 index def
  currentdict definefont pop
  end
} bind def
%%EndResource
%%BeginResource: procset (Apache XML Graphics EPS ProcSet) 1.0 0
%%Version: 1.0 0
%%Copyright: (Copyright 2002-2003 The Apache Software Foundation. License terms: http://www.apache.org/licenses/LICENSE-2.0)
/BeginEPSF { %def
/b4_Inc_state save def         % Save state for cleanup
/dict_count countdictstack def % Count objects on dict stack
/op_count count 1 sub def      % Count objects on operand stack
userdict begin                 % Push userdict on dict stack
/showpage { } def              % Redefine showpage, { } = null proc
0 setgray 0 setlinecap         % Prepare graphics state
1 setlinewidth 0 setlinejoin
10 setmiterlimit [ ] 0 setdash newpath
/languagelevel where           % If level not equal to 1 then
{pop languagelevel             % set strokeadjust and
1 ne                           % overprint to their defaults.
{false setstrokeadjust false setoverprint
} if
} if
} bd
/EndEPSF { %def
count op_count sub {pop} repeat            % Clean up stacks
countdictstack dict_count sub {end} repeat
b4_Inc_state restore
} bd
%%EndResource
%FOPBeginFontDict
%%IncludeResource: font Courier-Oblique
%%IncludeResource: font Courier-BoldOblique
%%IncludeResource: font Courier-Bold
%%IncludeResource: font ZapfDingbats
%%IncludeResource: font Symbol
%%IncludeResource: font Helvetica
%%IncludeResource: font Helvetica-Oblique
%%IncludeResource: font Helvetica-Bold
%%IncludeResource: font Helvetica-BoldOblique
%%IncludeResource: font Times-Roman
%%IncludeResource: font Times-Italic
%%IncludeResource: font Times-Bold
%%IncludeResource: font Times-BoldItalic
%%IncludeResource: font Courier
%FOPEndFontDict
%%BeginResource: encoding WinAnsiEncoding
/WinAnsiEncoding [
/.notdef /.notdef /.notdef /.notdef /.notdef
/.notdef /.notdef /.notdef /.notdef /.notdef
/.notdef /.notdef /.notdef /.notdef /.notdef
/.notdef /.notdef /.notdef /.notdef /.notdef
/.notdef /.notdef /.notdef /.notdef /.notdef
/.notdef /.notdef /.notdef /.notdef /.notdef
/.notdef /.notdef /space /exclam /quotedbl
/numbersign /dollar /percent /ampersand /quotesingle
/parenleft /parenright /asterisk /plus /comma
/hyphen /period /slash /zero /one
/two /three /four /five /six
/seven /eight /nine /colon /semicolon
/less /equal /greater /question /at
/A /B /C /D /E
/F /G /H /I /J
/K /L /M /N /O
/P /Q /R /S /T
/U /V /W /X /Y
/Z /bracketleft /backslash /bracketright /asciicircum
/underscore /quoteleft /a /b /c
/d /e /f /g /h
/i /j /k /l /m
/n /o /p /q /r
/s /t /u /v /w
/x /y /z /braceleft /bar
/braceright /asciitilde /bullet /Euro /bullet
/quotesinglbase /florin /quotedblbase /ellipsis /dagger
/daggerdbl /circumflex /perthousand /Scaron /guilsinglleft
/OE /bullet /Zcaron /bullet /bullet
/quoteleft /quoteright /quotedblleft /quotedblright /bullet
/endash /emdash /asciitilde /trademark /scaron
/guilsinglright /oe /bullet /zcaron /Ydieresis
/space /exclamdown /cent /sterling /currency
/yen /brokenbar /section /dieresis /copyright
/ordfeminine /guillemotleft /logicalnot /sfthyphen /registered
/macron /degree /plusminus /twosuperior /threesuperior
/acute /mu /paragraph /middot /cedilla
/onesuperior /ordmasculine /guillemotright /onequarter /onehalf
/threequarters /questiondown /Agrave /Aacute /Acircumflex
/Atilde /Adieresis /Aring /AE /Ccedilla
/Egrave /Eacute /Ecircumflex /Edieresis /Igrave
/Iacute /Icircumflex /Idieresis /Eth /Ntilde
/Ograve /Oacute /Ocircumflex /Otilde /Odieresis
/multiply /Oslash /Ugrave /Uacute /Ucircumflex
/Udieresis /Yacute /Thorn /germandbls /agrave
/aacute /acircumflex /atilde /adieresis /aring
/ae /ccedilla /egrave /eacute /ecircumflex
/edieresis /igrave /iacute /icircumflex /idieresis
/eth /ntilde /ograve /oacute /ocircumflex
/otilde /odieresis /divide /oslash /ugrave
/uacute /ucircumflex /udieresis /yacute /thorn
/ydieresis
] def
%%EndResource
%FOPBeginFontReencode
/Courier-Oblique findfont
dup length dict begin
  {1 index /FID ne {def} {pop pop} ifelse} forall
  /Encoding WinAnsiEncoding def
  currentdict
end
/Courier-Oblique exch definefont pop
/Courier-BoldOblique findfont
dup length dict begin
  {1 index /FID ne {def} {pop pop} ifelse} forall
  /Encoding WinAnsiEncoding def
  currentdict
end
/Courier-BoldOblique exch definefont pop
/Courier-Bold findfont
dup length dict begin
  {1 index /FID ne {def} {pop pop} ifelse} forall
  /Encoding WinAnsiEncoding def
  currentdict
end
/Courier-Bold exch definefont pop
/Helvetica findfont
dup length dict begin
  {1 index /FID ne {def} {pop pop} ifelse} forall
  /Encoding WinAnsiEncoding def
  currentdict
end
/Helvetica exch definefont pop
/Helvetica-Oblique findfont
dup length dict begin
  {1 index /FID ne {def} {pop pop} ifelse} forall
  /Encoding WinAnsiEncoding def
  currentdict
end
/Helvetica-Oblique exch definefont pop
/Helvetica-Bold findfont
dup length dict begin
  {1 index /FID ne {def} {pop pop} ifelse} forall
  /Encoding WinAnsiEncoding def
  currentdict
end
/Helvetica-Bold exch definefont pop
/Helvetica-BoldOblique findfont
dup length dict begin
  {1 index /FID ne {def} {pop pop} ifelse} forall
  /Encoding WinAnsiEncoding def
  currentdict
end
/Helvetica-BoldOblique exch definefont pop
/Times-Roman findfont
dup length dict begin
  {1 index /FID ne {def} {pop pop} ifelse} forall
  /Encoding WinAnsiEncoding def
  currentdict
end
/Times-Roman exch definefont pop
/Times-Italic findfont
dup length dict begin
  {1 index /FID ne {def} {pop pop} ifelse} forall
  /Encoding WinAnsiEncoding def
  currentdict
end
/Times-Italic exch definefont pop
/Times-Bold findfont
dup length dict begin
  {1 index /FID ne {def} {pop pop} ifelse} forall
  /Encoding WinAnsiEncoding def
  currentdict
end
/Times-Bold exch definefont pop
/Times-BoldItalic findfont
dup length dict begin
  {1 index /FID ne {def} {pop pop} ifelse} forall
  /Encoding WinAnsiEncoding def
  currentdict
end
/Times-BoldItalic exch definefont pop
/Courier findfont
dup length dict begin
  {1 index /FID ne {def} {pop pop} ifelse} forall
  /Encoding WinAnsiEncoding def
  currentdict
end
/Courier exch definefont pop
%FOPEndFontReencode
%%EndProlog
%%Page: 1 1
%%PageBoundingBox: 0 0 560 420
%%BeginPageSetup
[1 0 0 -1 0 420] CT
%%EndPageSetup
GS
1 GC
N
0 0 560 420 re
f
GR
GS
1 GC
N
0 0 560 420 re
f
GR
GS
1 GC
N
73 370.5 M
507 370.5 L
507 31.5 L
73 31.5 L
cp
f
GR
GS
0.149 GC
2 setlinecap
1 LJ
0.5 LW
N
73 370.5 M
507 370.5 L
S
GR
GS
0.149 GC
2 setlinecap
1 LJ
0.5 LW
N
73 31.5 M
507 31.5 L
S
GR
GS
0.149 GC
2 setlinecap
1 LJ
0.5 LW
N
180.252 370.5 M
180.252 366.16 L
S
GR
GS
0.149 GC
2 setlinecap
1 LJ
0.5 LW
N
275.944 370.5 M
275.944 366.16 L
S
GR
GS
0.149 GC
2 setlinecap
1 LJ
0.5 LW
N
343.838 370.5 M
343.838 366.16 L
S
GR
GS
0.149 GC
2 setlinecap
1 LJ
0.5 LW
N
396.502 370.5 M
396.502 366.16 L
S
GR
GS
0.149 GC
2 setlinecap
1 LJ
0.5 LW
N
439.531 370.5 M
439.531 366.16 L
S
GR
GS
0.149 GC
2 setlinecap
1 LJ
0.5 LW
N
475.911 370.5 M
475.911 366.16 L
S
GR
GS
0.149 GC
2 setlinecap
1 LJ
0.5 LW
N
180.252 31.5 M
180.252 35.84 L
S
GR
GS
0.149 GC
2 setlinecap
1 LJ
0.5 LW
N
275.944 31.5 M
275.944 35.84 L
S
GR
GS
0.149 GC
2 setlinecap
1 LJ
0.5 LW
N
343.838 31.5 M
343.838 35.84 L
S
GR
GS
0.149 GC
2 setlinecap
1 LJ
0.5 LW
N
396.502 31.5 M
396.502 35.84 L
S
GR
GS
0.149 GC
2 setlinecap
1 LJ
0.5 LW
N
439.531 31.5 M
439.531 35.84 L
S
GR
GS
0.149 GC
2 setlinecap
1 LJ
0.5 LW
N
475.911 31.5 M
475.911 35.84 L
S
GR
GS
0.149 GC
2 setlinecap
1 LJ
0.5 LW
N
96.074 370.5 M
96.074 368.33 L
S
GR
GS
0.149 GC
2 setlinecap
1 LJ
0.5 LW
N
127.589 370.5 M
127.589 368.33 L
S
GR
GS
0.149 GC
2 setlinecap
1 LJ
0.5 LW
N
155.386 370.5 M
155.386 368.33 L
S
GR
GS
0.149 GC
2 setlinecap
1 LJ
0.5 LW
N
202.745 370.5 M
202.745 368.33 L
S
GR
GS
0.149 GC
2 setlinecap
1 LJ
0.5 LW
N
223.281 370.5 M
223.281 368.33 L
S
GR
GS
0.149 GC
2 setlinecap
1 LJ
0.5 LW
N
242.171 370.5 M
242.171 368.33 L
S
GR
GS
0.149 GC
2 setlinecap
1 LJ
0.5 LW
N
259.661 370.5 M
259.661 368.33 L
S
GR
GS
0.149 GC
2 setlinecap
1 LJ
0.5 LW
N
291.175 370.5 M
291.175 368.33 L
S
GR
GS
0.149 GC
2 setlinecap
1 LJ
0.5 LW
N
305.483 370.5 M
305.483 368.33 L
S
GR
GS
0.149 GC
2 setlinecap
1 LJ
0.5 LW
N
318.973 370.5 M
318.973 368.33 L
S
GR
GS
0.149 GC
2 setlinecap
1 LJ
0.5 LW
N
331.733 370.5 M
331.733 368.33 L
S
GR
GS
0.149 GC
2 setlinecap
1 LJ
0.5 LW
N
355.353 370.5 M
355.353 368.33 L
S
GR
GS
0.149 GC
2 setlinecap
1 LJ
0.5 LW
N
366.332 370.5 M
366.332 368.33 L
S
GR
GS
0.149 GC
2 setlinecap
1 LJ
0.5 LW
N
376.823 370.5 M
376.823 368.33 L
S
GR
GS
0.149 GC
2 setlinecap
1 LJ
0.5 LW
N
386.867 370.5 M
386.867 368.33 L
S
GR
GS
0.149 GC
2 setlinecap
1 LJ
0.5 LW
N
405.758 370.5 M
405.758 368.33 L
S
GR
GS
0.149 GC
2 setlinecap
1 LJ
0.5 LW
N
414.665 370.5 M
414.665 368.33 L
S
GR
GS
0.149 GC
2 setlinecap
1 LJ
0.5 LW
N
423.248 370.5 M
423.248 368.33 L
S
GR
GS
0.149 GC
2 setlinecap
1 LJ
0.5 LW
N
431.53 370.5 M
431.53 368.33 L
S
GR
GS
0.149 GC
2 setlinecap
1 LJ
0.5 LW
N
447.269 370.5 M
447.269 368.33 L
S
GR
GS
0.149 GC
2 setlinecap
1 LJ
0.5 LW
N
454.762 370.5 M
454.762 368.33 L
S
GR
GS
0.149 GC
2 setlinecap
1 LJ
0.5 LW
N
462.024 370.5 M
462.024 368.33 L
S
GR
GS
0.149 GC
2 setlinecap
1 LJ
0.5 LW
N
469.07 370.5 M
469.07 368.33 L
S
GR
GS
0.149 GC
2 setlinecap
1 LJ
0.5 LW
N
482.56 370.5 M
482.56 368.33 L
S
GR
GS
0.149 GC
2 setlinecap
1 LJ
0.5 LW
N
489.026 370.5 M
489.026 368.33 L
S
GR
GS
0.149 GC
2 setlinecap
1 LJ
0.5 LW
N
495.32 370.5 M
495.32 368.33 L
S
GR
GS
0.149 GC
2 setlinecap
1 LJ
0.5 LW
N
501.45 370.5 M
501.45 368.33 L
S
GR
GS
0.149 GC
2 setlinecap
1 LJ
0.5 LW
N
96.074 31.5 M
96.074 33.67 L
S
GR
GS
0.149 GC
2 setlinecap
1 LJ
0.5 LW
N
127.589 31.5 M
127.589 33.67 L
S
GR
GS
0.149 GC
2 setlinecap
1 LJ
0.5 LW
N
155.386 31.5 M
155.386 33.67 L
S
GR
GS
0.149 GC
2 setlinecap
1 LJ
0.5 LW
N
202.745 31.5 M
202.745 33.67 L
S
GR
GS
0.149 GC
2 setlinecap
1 LJ
0.5 LW
N
223.281 31.5 M
223.281 33.67 L
S
GR
GS
0.149 GC
2 setlinecap
1 LJ
0.5 LW
N
242.171 31.5 M
242.171 33.67 L
S
GR
GS
0.149 GC
2 setlinecap
1 LJ
0.5 LW
N
259.661 31.5 M
259.661 33.67 L
S
GR
GS
0.149 GC
2 setlinecap
1 LJ
0.5 LW
N
291.175 31.5 M
291.175 33.67 L
S
GR
GS
0.149 GC
2 setlinecap
1 LJ
0.5 LW
N
305.483 31.5 M
305.483 33.67 L
S
GR
GS
0.149 GC
2 setlinecap
1 LJ
0.5 LW
N
318.973 31.5 M
318.973 33.67 L
S
GR
GS
0.149 GC
2 setlinecap
1 LJ
0.5 LW
N
331.733 31.5 M
331.733 33.67 L
S
GR
GS
0.149 GC
2 setlinecap
1 LJ
0.5 LW
N
355.353 31.5 M
355.353 33.67 L
S
GR
GS
0.149 GC
2 setlinecap
1 LJ
0.5 LW
N
366.332 31.5 M
366.332 33.67 L
S
GR
GS
0.149 GC
2 setlinecap
1 LJ
0.5 LW
N
376.823 31.5 M
376.823 33.67 L
S
GR
GS
0.149 GC
2 setlinecap
1 LJ
0.5 LW
N
386.867 31.5 M
386.867 33.67 L
S
GR
GS
0.149 GC
2 setlinecap
1 LJ
0.5 LW
N
405.758 31.5 M
405.758 33.67 L
S
GR
GS
0.149 GC
2 setlinecap
1 LJ
0.5 LW
N
414.665 31.5 M
414.665 33.67 L
S
GR
GS
0.149 GC
2 setlinecap
1 LJ
0.5 LW
N
423.248 31.5 M
423.248 33.67 L
S
GR
GS
0.149 GC
2 setlinecap
1 LJ
0.5 LW
N
431.53 31.5 M
431.53 33.67 L
S
GR
GS
0.149 GC
2 setlinecap
1 LJ
0.5 LW
N
447.269 31.5 M
447.269 33.67 L
S
GR
GS
0.149 GC
2 setlinecap
1 LJ
0.5 LW
N
454.762 31.5 M
454.762 33.67 L
S
GR
GS
0.149 GC
2 setlinecap
1 LJ
0.5 LW
N
462.024 31.5 M
462.024 33.67 L
S
GR
GS
0.149 GC
2 setlinecap
1 LJ
0.5 LW
N
469.07 31.5 M
469.07 33.67 L
S
GR
GS
0.149 GC
2 setlinecap
1 LJ
0.5 LW
N
482.56 31.5 M
482.56 33.67 L
S
GR
GS
0.149 GC
2 setlinecap
1 LJ
0.5 LW
N
489.026 31.5 M
489.026 33.67 L
S
GR
GS
0.149 GC
2 setlinecap
1 LJ
0.5 LW
N
495.32 31.5 M
495.32 33.67 L
S
GR
GS
0.149 GC
2 setlinecap
1 LJ
0.5 LW
N
501.45 31.5 M
501.45 33.67 L
S
GR
GS
[1 0 0 1 180.25171 375.70001] CT
0.149 GC
/Helvetica 16 F
GS
[1 0 0 1 0 0] CT
-4.5 16 moveto 
1 -1 scale
(2) t 
GR
GR
GS
[1 0 0 1 275.94382 375.70001] CT
0.149 GC
/Helvetica 16 F
GS
[1 0 0 1 0 0] CT
-4.5 16 moveto 
1 -1 scale
(3) t 
GR
GR
GS
[1 0 0 1 343.83847 375.70001] CT
0.149 GC
/Helvetica 16 F
GS
[1 0 0 1 0 0] CT
-4.5 16 moveto 
1 -1 scale
(4) t 
GR
GR
GS
[1 0 0 1 396.50162 375.70001] CT
0.149 GC
/Helvetica 16 F
GS
[1 0 0 1 0 0] CT
-4.5 16 moveto 
1 -1 scale
(5) t 
GR
GR
GS
[1 0 0 1 439.53058 375.70001] CT
0.149 GC
/Helvetica 16 F
GS
[1 0 0 1 0 0] CT
-4.5 16 moveto 
1 -1 scale
(6) t 
GR
GR
GS
[1 0 0 1 475.91101 375.70001] CT
0.149 GC
/Helvetica 16 F
GS
[1 0 0 1 0 0] CT
-4.5 16 moveto 
1 -1 scale
(7) t 
GR
GR
GS
[1 0 0 1 290.00021 396.20001] CT
0.149 GC
/Helvetica 17.6 F
GS
[1 0 0 1 0 0] CT
-80.5 17 moveto 
1 -1 scale
(Degrees-of-freedom) t 
GR
GR
GS
[1 0 0 1 468 417] CT
0.149 GC
N
2.359 -0.469 M
2.359 -0.594 2.438 -0.688 QT
5.766 -4 L
2.438 -7.328 L
2.359 -7.406 2.359 -7.547 QT
2.359 -7.656 2.453 -7.758 QT
2.547 -7.859 2.672 -7.859 QT
2.781 -7.859 2.922 -7.766 QT
6.234 -4.453 L
9.531 -7.766 L
9.656 -7.859 9.766 -7.859 QT
9.891 -7.859 9.984 -7.766 QT
10.078 -7.672 10.078 -7.547 QT
10.078 -7.406 10 -7.328 QT
6.672 -4 L
10 -0.688 L
10.078 -0.594 10.078 -0.469 QT
10.078 -0.328 9.984 -0.234 QT
9.891 -0.141 9.766 -0.141 QT
9.641 -0.141 9.531 -0.266 QT
6.234 -3.563 L
2.922 -0.266 L
2.797 -0.141 2.672 -0.141 QT
2.547 -0.141 2.453 -0.242 QT
2.359 -0.344 2.359 -0.469 QT
cp
f
GR
GS
[1 0 0 1 481 417] CT
0.149 GC
/Helvetica 16 F
GS
[1 0 0 1 0 0] CT
0 0 moveto 
1 -1 scale
(10) t 
GR
GR
GS
[1 0 0 1 499 409] CT
0.149 GC
/Helvetica 12.8 F
GS
[1 0 0 1 0 0] CT
0 0 moveto 
1 -1 scale
(4) t 
GR
GR
GS
0.149 GC
2 setlinecap
1 LJ
0.5 LW
N
73 370.5 M
73 31.5 L
S
GR
GS
0.149 GC
2 setlinecap
1 LJ
0.5 LW
N
507 370.5 M
507 31.5 L
S
GR
GS
0.149 GC
2 setlinecap
1 LJ
0.5 LW
N
73 361.258 M
77.34 361.258 L
S
GR
GS
0.149 GC
2 setlinecap
1 LJ
0.5 LW
N
73 255.008 M
77.34 255.008 L
S
GR
GS
0.149 GC
2 setlinecap
1 LJ
0.5 LW
N
73 148.758 M
77.34 148.758 L
S
GR
GS
0.149 GC
2 setlinecap
1 LJ
0.5 LW
N
73 42.508 M
77.34 42.508 L
S
GR
GS
0.149 GC
2 setlinecap
1 LJ
0.5 LW
N
507 361.258 M
502.66 361.258 L
S
GR
GS
0.149 GC
2 setlinecap
1 LJ
0.5 LW
N
507 255.008 M
502.66 255.008 L
S
GR
GS
0.149 GC
2 setlinecap
1 LJ
0.5 LW
N
507 148.758 M
502.66 148.758 L
S
GR
GS
0.149 GC
2 setlinecap
1 LJ
0.5 LW
N
507 42.508 M
502.66 42.508 L
S
GR
GS
0.149 GC
2 setlinecap
1 LJ
0.5 LW
N
73 369.487 M
75.17 369.487 L
S
GR
GS
0.149 GC
2 setlinecap
1 LJ
0.5 LW
N
73 366.407 M
75.17 366.407 L
S
GR
GS
0.149 GC
2 setlinecap
1 LJ
0.5 LW
N
73 363.689 M
75.17 363.689 L
S
GR
GS
0.149 GC
2 setlinecap
1 LJ
0.5 LW
N
73 361.258 M
75.17 361.258 L
S
GR
GS
0.149 GC
2 setlinecap
1 LJ
0.5 LW
N
73 345.266 M
75.17 345.266 L
S
GR
GS
0.149 GC
2 setlinecap
1 LJ
0.5 LW
N
73 335.911 M
75.17 335.911 L
S
GR
GS
0.149 GC
2 setlinecap
1 LJ
0.5 LW
N
73 329.274 M
75.17 329.274 L
S
GR
GS
0.149 GC
2 setlinecap
1 LJ
0.5 LW
N
73 324.125 M
75.17 324.125 L
S
GR
GS
0.149 GC
2 setlinecap
1 LJ
0.5 LW
N
73 319.919 M
75.17 319.919 L
S
GR
GS
0.149 GC
2 setlinecap
1 LJ
0.5 LW
N
73 316.362 M
75.17 316.362 L
S
GR
GS
0.149 GC
2 setlinecap
1 LJ
0.5 LW
N
73 313.281 M
75.17 313.281 L
S
GR
GS
0.149 GC
2 setlinecap
1 LJ
0.5 LW
N
73 310.564 M
75.17 310.564 L
S
GR
GS
0.149 GC
2 setlinecap
1 LJ
0.5 LW
N
73 308.133 M
75.17 308.133 L
S
GR
GS
0.149 GC
2 setlinecap
1 LJ
0.5 LW
N
73 292.141 M
75.17 292.141 L
S
GR
GS
0.149 GC
2 setlinecap
1 LJ
0.5 LW
N
73 282.786 M
75.17 282.786 L
S
GR
GS
0.149 GC
2 setlinecap
1 LJ
0.5 LW
N
73 276.149 M
75.17 276.149 L
S
GR
GS
0.149 GC
2 setlinecap
1 LJ
0.5 LW
N
73 271 M
75.17 271 L
S
GR
GS
0.149 GC
2 setlinecap
1 LJ
0.5 LW
N
73 266.794 M
75.17 266.794 L
S
GR
GS
0.149 GC
2 setlinecap
1 LJ
0.5 LW
N
73 263.237 M
75.17 263.237 L
S
GR
GS
0.149 GC
2 setlinecap
1 LJ
0.5 LW
N
73 260.156 M
75.17 260.156 L
S
GR
GS
0.149 GC
2 setlinecap
1 LJ
0.5 LW
N
73 257.439 M
75.17 257.439 L
S
GR
GS
0.149 GC
2 setlinecap
1 LJ
0.5 LW
N
73 255.008 M
75.17 255.008 L
S
GR
GS
0.149 GC
2 setlinecap
1 LJ
0.5 LW
N
73 255.008 M
75.17 255.008 L
S
GR
GS
0.149 GC
2 setlinecap
1 LJ
0.5 LW
N
73 239.016 M
75.17 239.016 L
S
GR
GS
0.149 GC
2 setlinecap
1 LJ
0.5 LW
N
73 229.661 M
75.17 229.661 L
S
GR
GS
0.149 GC
2 setlinecap
1 LJ
0.5 LW
N
73 223.023 M
75.17 223.023 L
S
GR
GS
0.149 GC
2 setlinecap
1 LJ
0.5 LW
N
73 217.875 M
75.17 217.875 L
S
GR
GS
0.149 GC
2 setlinecap
1 LJ
0.5 LW
N
73 213.669 M
75.17 213.669 L
S
GR
GS
0.149 GC
2 setlinecap
1 LJ
0.5 LW
N
73 210.112 M
75.17 210.112 L
S
GR
GS
0.149 GC
2 setlinecap
1 LJ
0.5 LW
N
73 207.031 M
75.17 207.031 L
S
GR
GS
0.149 GC
2 setlinecap
1 LJ
0.5 LW
N
73 204.314 M
75.17 204.314 L
S
GR
GS
0.149 GC
2 setlinecap
1 LJ
0.5 LW
N
73 201.883 M
75.17 201.883 L
S
GR
GS
0.149 GC
2 setlinecap
1 LJ
0.5 LW
N
73 185.891 M
75.17 185.891 L
S
GR
GS
0.149 GC
2 setlinecap
1 LJ
0.5 LW
N
73 176.536 M
75.17 176.536 L
S
GR
GS
0.149 GC
2 setlinecap
1 LJ
0.5 LW
N
73 169.898 M
75.17 169.898 L
S
GR
GS
0.149 GC
2 setlinecap
1 LJ
0.5 LW
N
73 164.75 M
75.17 164.75 L
S
GR
GS
0.149 GC
2 setlinecap
1 LJ
0.5 LW
N
73 160.544 M
75.17 160.544 L
S
GR
GS
0.149 GC
2 setlinecap
1 LJ
0.5 LW
N
73 156.987 M
75.17 156.987 L
S
GR
GS
0.149 GC
2 setlinecap
1 LJ
0.5 LW
N
73 153.906 M
75.17 153.906 L
S
GR
GS
0.149 GC
2 setlinecap
1 LJ
0.5 LW
N
73 151.189 M
75.17 151.189 L
S
GR
GS
0.149 GC
2 setlinecap
1 LJ
0.5 LW
N
73 148.758 M
75.17 148.758 L
S
GR
GS
0.149 GC
2 setlinecap
1 LJ
0.5 LW
N
73 132.766 M
75.17 132.766 L
S
GR
GS
0.149 GC
2 setlinecap
1 LJ
0.5 LW
N
73 123.411 M
75.17 123.411 L
S
GR
GS
0.149 GC
2 setlinecap
1 LJ
0.5 LW
N
73 116.773 M
75.17 116.773 L
S
GR
GS
0.149 GC
2 setlinecap
1 LJ
0.5 LW
N
73 111.625 M
75.17 111.625 L
S
GR
GS
0.149 GC
2 setlinecap
1 LJ
0.5 LW
N
73 107.418 M
75.17 107.418 L
S
GR
GS
0.149 GC
2 setlinecap
1 LJ
0.5 LW
N
73 103.862 M
75.17 103.862 L
S
GR
GS
0.149 GC
2 setlinecap
1 LJ
0.5 LW
N
73 100.781 M
75.17 100.781 L
S
GR
GS
0.149 GC
2 setlinecap
1 LJ
0.5 LW
N
73 98.064 M
75.17 98.064 L
S
GR
GS
0.149 GC
2 setlinecap
1 LJ
0.5 LW
N
73 95.633 M
75.17 95.633 L
S
GR
GS
0.149 GC
2 setlinecap
1 LJ
0.5 LW
N
73 79.64 M
75.17 79.64 L
S
GR
GS
0.149 GC
2 setlinecap
1 LJ
0.5 LW
N
73 70.286 M
75.17 70.286 L
S
GR
GS
0.149 GC
2 setlinecap
1 LJ
0.5 LW
N
73 63.648 M
75.17 63.648 L
S
GR
GS
0.149 GC
2 setlinecap
1 LJ
0.5 LW
N
73 58.5 M
75.17 58.5 L
S
GR
GS
0.149 GC
2 setlinecap
1 LJ
0.5 LW
N
73 54.293 M
75.17 54.293 L
S
GR
GS
0.149 GC
2 setlinecap
1 LJ
0.5 LW
N
73 50.737 M
75.17 50.737 L
S
GR
GS
0.149 GC
2 setlinecap
1 LJ
0.5 LW
N
73 47.656 M
75.17 47.656 L
S
GR
GS
0.149 GC
2 setlinecap
1 LJ
0.5 LW
N
73 44.939 M
75.17 44.939 L
S
GR
GS
0.149 GC
2 setlinecap
1 LJ
0.5 LW
N
73 42.508 M
75.17 42.508 L
S
GR
GS
0.149 GC
2 setlinecap
1 LJ
0.5 LW
N
507 369.487 M
504.83 369.487 L
S
GR
GS
0.149 GC
2 setlinecap
1 LJ
0.5 LW
N
507 366.407 M
504.83 366.407 L
S
GR
GS
0.149 GC
2 setlinecap
1 LJ
0.5 LW
N
507 363.689 M
504.83 363.689 L
S
GR
GS
0.149 GC
2 setlinecap
1 LJ
0.5 LW
N
507 361.258 M
504.83 361.258 L
S
GR
GS
0.149 GC
2 setlinecap
1 LJ
0.5 LW
N
507 345.266 M
504.83 345.266 L
S
GR
GS
0.149 GC
2 setlinecap
1 LJ
0.5 LW
N
507 335.911 M
504.83 335.911 L
S
GR
GS
0.149 GC
2 setlinecap
1 LJ
0.5 LW
N
507 329.274 M
504.83 329.274 L
S
GR
GS
0.149 GC
2 setlinecap
1 LJ
0.5 LW
N
507 324.125 M
504.83 324.125 L
S
GR
GS
0.149 GC
2 setlinecap
1 LJ
0.5 LW
N
507 319.919 M
504.83 319.919 L
S
GR
GS
0.149 GC
2 setlinecap
1 LJ
0.5 LW
N
507 316.362 M
504.83 316.362 L
S
GR
GS
0.149 GC
2 setlinecap
1 LJ
0.5 LW
N
507 313.281 M
504.83 313.281 L
S
GR
GS
0.149 GC
2 setlinecap
1 LJ
0.5 LW
N
507 310.564 M
504.83 310.564 L
S
GR
GS
0.149 GC
2 setlinecap
1 LJ
0.5 LW
N
507 308.133 M
504.83 308.133 L
S
GR
GS
0.149 GC
2 setlinecap
1 LJ
0.5 LW
N
507 292.141 M
504.83 292.141 L
S
GR
GS
0.149 GC
2 setlinecap
1 LJ
0.5 LW
N
507 282.786 M
504.83 282.786 L
S
GR
GS
0.149 GC
2 setlinecap
1 LJ
0.5 LW
N
507 276.149 M
504.83 276.149 L
S
GR
GS
0.149 GC
2 setlinecap
1 LJ
0.5 LW
N
507 271 M
504.83 271 L
S
GR
GS
0.149 GC
2 setlinecap
1 LJ
0.5 LW
N
507 266.794 M
504.83 266.794 L
S
GR
GS
0.149 GC
2 setlinecap
1 LJ
0.5 LW
N
507 263.237 M
504.83 263.237 L
S
GR
GS
0.149 GC
2 setlinecap
1 LJ
0.5 LW
N
507 260.156 M
504.83 260.156 L
S
GR
GS
0.149 GC
2 setlinecap
1 LJ
0.5 LW
N
507 257.439 M
504.83 257.439 L
S
GR
GS
0.149 GC
2 setlinecap
1 LJ
0.5 LW
N
507 255.008 M
504.83 255.008 L
S
GR
GS
0.149 GC
2 setlinecap
1 LJ
0.5 LW
N
507 255.008 M
504.83 255.008 L
S
GR
GS
0.149 GC
2 setlinecap
1 LJ
0.5 LW
N
507 239.016 M
504.83 239.016 L
S
GR
GS
0.149 GC
2 setlinecap
1 LJ
0.5 LW
N
507 229.661 M
504.83 229.661 L
S
GR
GS
0.149 GC
2 setlinecap
1 LJ
0.5 LW
N
507 223.023 M
504.83 223.023 L
S
GR
GS
0.149 GC
2 setlinecap
1 LJ
0.5 LW
N
507 217.875 M
504.83 217.875 L
S
GR
GS
0.149 GC
2 setlinecap
1 LJ
0.5 LW
N
507 213.669 M
504.83 213.669 L
S
GR
GS
0.149 GC
2 setlinecap
1 LJ
0.5 LW
N
507 210.112 M
504.83 210.112 L
S
GR
GS
0.149 GC
2 setlinecap
1 LJ
0.5 LW
N
507 207.031 M
504.83 207.031 L
S
GR
GS
0.149 GC
2 setlinecap
1 LJ
0.5 LW
N
507 204.314 M
504.83 204.314 L
S
GR
GS
0.149 GC
2 setlinecap
1 LJ
0.5 LW
N
507 201.883 M
504.83 201.883 L
S
GR
GS
0.149 GC
2 setlinecap
1 LJ
0.5 LW
N
507 185.891 M
504.83 185.891 L
S
GR
GS
0.149 GC
2 setlinecap
1 LJ
0.5 LW
N
507 176.536 M
504.83 176.536 L
S
GR
GS
0.149 GC
2 setlinecap
1 LJ
0.5 LW
N
507 169.898 M
504.83 169.898 L
S
GR
GS
0.149 GC
2 setlinecap
1 LJ
0.5 LW
N
507 164.75 M
504.83 164.75 L
S
GR
GS
0.149 GC
2 setlinecap
1 LJ
0.5 LW
N
507 160.544 M
504.83 160.544 L
S
GR
GS
0.149 GC
2 setlinecap
1 LJ
0.5 LW
N
507 156.987 M
504.83 156.987 L
S
GR
GS
0.149 GC
2 setlinecap
1 LJ
0.5 LW
N
507 153.906 M
504.83 153.906 L
S
GR
GS
0.149 GC
2 setlinecap
1 LJ
0.5 LW
N
507 151.189 M
504.83 151.189 L
S
GR
GS
0.149 GC
2 setlinecap
1 LJ
0.5 LW
N
507 148.758 M
504.83 148.758 L
S
GR
GS
0.149 GC
2 setlinecap
1 LJ
0.5 LW
N
507 132.766 M
504.83 132.766 L
S
GR
GS
0.149 GC
2 setlinecap
1 LJ
0.5 LW
N
507 123.411 M
504.83 123.411 L
S
GR
GS
0.149 GC
2 setlinecap
1 LJ
0.5 LW
N
507 116.773 M
504.83 116.773 L
S
GR
GS
0.149 GC
2 setlinecap
1 LJ
0.5 LW
N
507 111.625 M
504.83 111.625 L
S
GR
GS
0.149 GC
2 setlinecap
1 LJ
0.5 LW
N
507 107.418 M
504.83 107.418 L
S
GR
GS
0.149 GC
2 setlinecap
1 LJ
0.5 LW
N
507 103.862 M
504.83 103.862 L
S
GR
GS
0.149 GC
2 setlinecap
1 LJ
0.5 LW
N
507 100.781 M
504.83 100.781 L
S
GR
GS
0.149 GC
2 setlinecap
1 LJ
0.5 LW
N
507 98.064 M
504.83 98.064 L
S
GR
GS
0.149 GC
2 setlinecap
1 LJ
0.5 LW
N
507 95.633 M
504.83 95.633 L
S
GR
GS
0.149 GC
2 setlinecap
1 LJ
0.5 LW
N
507 79.64 M
504.83 79.64 L
S
GR
GS
0.149 GC
2 setlinecap
1 LJ
0.5 LW
N
507 70.286 M
504.83 70.286 L
S
GR
GS
0.149 GC
2 setlinecap
1 LJ
0.5 LW
N
507 63.648 M
504.83 63.648 L
S
GR
GS
0.149 GC
2 setlinecap
1 LJ
0.5 LW
N
507 58.5 M
504.83 58.5 L
S
GR
GS
0.149 GC
2 setlinecap
1 LJ
0.5 LW
N
507 54.293 M
504.83 54.293 L
S
GR
GS
0.149 GC
2 setlinecap
1 LJ
0.5 LW
N
507 50.737 M
504.83 50.737 L
S
GR
GS
0.149 GC
2 setlinecap
1 LJ
0.5 LW
N
507 47.656 M
504.83 47.656 L
S
GR
GS
0.149 GC
2 setlinecap
1 LJ
0.5 LW
N
507 44.939 M
504.83 44.939 L
S
GR
GS
0.149 GC
2 setlinecap
1 LJ
0.5 LW
N
507 42.508 M
504.83 42.508 L
S
GR
GS
[1 0 0 1 37 370] CT
0.149 GC
/Helvetica 16 F
GS
[1 0 0 1 0 0] CT
0 0 moveto 
1 -1 scale
(10) t 
GR
GR
GS
[1 0 0 1 55 362] CT
0.149 GC
/Helvetica 12.8 F
GS
[1 0 0 1 0 0] CT
0 0 moveto 
1 -1 scale
(-6) t 
GR
GR
GS
[1 0 0 1 37 264] CT
0.149 GC
/Helvetica 16 F
GS
[1 0 0 1 0 0] CT
0 0 moveto 
1 -1 scale
(10) t 
GR
GR
GS
[1 0 0 1 55 256] CT
0.149 GC
/Helvetica 12.8 F
GS
[1 0 0 1 0 0] CT
0 0 moveto 
1 -1 scale
(-4) t 
GR
GR
GS
[1 0 0 1 37 158] CT
0.149 GC
/Helvetica 16 F
GS
[1 0 0 1 0 0] CT
0 0 moveto 
1 -1 scale
(10) t 
GR
GR
GS
[1 0 0 1 55 150] CT
0.149 GC
/Helvetica 12.8 F
GS
[1 0 0 1 0 0] CT
0 0 moveto 
1 -1 scale
(-2) t 
GR
GR
GS
[1 0 0 1 42 52] CT
0.149 GC
/Helvetica 16 F
GS
[1 0 0 1 0 0] CT
0 0 moveto 
1 -1 scale
(10) t 
GR
GR
GS
[1 0 0 1 60 44] CT
0.149 GC
/Helvetica 12.8 F
GS
[1 0 0 1 0 0] CT
0 0 moveto 
1 -1 scale
(0) t 
GR
GR
GS
[0 -1 1 0 34.3 200.99983] CT
0.149 GC
/Helvetica 17.6 F
GS
[1 0 0 1 0 0] CT
-19.5 -4 moveto 
1 -1 scale
(Error) t 
GR
GR
GS
1 0 1 RC
1 LJ
2 LW
N
73 58.478 M
224.301 132.508 L
338.468 207.297 L
430.24 295.095 L
507 370.5 L
S
GR
GS
[1 0 0 1 73 58.47803] CT
1 0 1 RC
10.0 ML
2 LW
N
-4.755 -1.545 M
-1.176 -1.545 L
0 -5 L
1.176 -1.545 L
4.755 -1.545 L
1.902 0.618 L
2.939 4.045 L
0 2 L
-2.939 4.045 L
-1.902 0.618 L
cp
S
GR
GS
[1 0 0 1 224.30115 132.50809] CT
1 0 1 RC
10.0 ML
2 LW
N
-4.755 -1.545 M
-1.176 -1.545 L
0 -5 L
1.176 -1.545 L
4.755 -1.545 L
1.902 0.618 L
2.939 4.045 L
0 2 L
-2.939 4.045 L
-1.902 0.618 L
cp
S
GR
GS
[1 0 0 1 338.46768 207.29697] CT
1 0 1 RC
10.0 ML
2 LW
N
-4.755 -1.545 M
-1.176 -1.545 L
0 -5 L
1.176 -1.545 L
4.755 -1.545 L
1.902 0.618 L
2.939 4.045 L
0 2 L
-2.939 4.045 L
-1.902 0.618 L
cp
S
GR
GS
[1 0 0 1 430.24026 295.0947] CT
1 0 1 RC
10.0 ML
2 LW
N
-4.755 -1.545 M
-1.176 -1.545 L
0 -5 L
1.176 -1.545 L
4.755 -1.545 L
1.902 0.618 L
2.939 4.045 L
0 2 L
-2.939 4.045 L
-1.902 0.618 L
cp
S
GR
GS
[1 0 0 1 507 370.5] CT
1 0 1 RC
10.0 ML
2 LW
N
-4.755 -1.545 M
-1.176 -1.545 L
0 -5 L
1.176 -1.545 L
4.755 -1.545 L
1.902 0.618 L
2.939 4.045 L
0 2 L
-2.939 4.045 L
-1.902 0.618 L
cp
S
GR
GS
1 0 0 RC
[8 2 4 2] 0 setdash
2 LJ
2 LW
N
73 35.903 M
224.301 99.404 L
338.468 168.323 L
430.24 248.356 L
507 322.86 L
S
GR
GS
[1 0 0 1 73 35.90254] CT
1 0 0 RC
10.0 ML
2 LW
N
0 -5 M
0 5 L
-5 0 M
5 0 L
S
GR
GS
[1 0 0 1 224.30115 99.40371] CT
1 0 0 RC
10.0 ML
2 LW
N
0 -5 M
0 5 L
-5 0 M
5 0 L
S
GR
GS
[1 0 0 1 338.46768 168.32272] CT
1 0 0 RC
10.0 ML
2 LW
N
0 -5 M
0 5 L
-5 0 M
5 0 L
S
GR
GS
[1 0 0 1 430.24026 248.35606] CT
1 0 0 RC
10.0 ML
2 LW
N
0 -5 M
0 5 L
-5 0 M
5 0 L
S
GR
GS
[1 0 0 1 507 322.85989] CT
1 0 0 RC
10.0 ML
2 LW
N
0 -5 M
0 5 L
-5 0 M
5 0 L
S
GR
GS
0 0 1 RC
[8 8] 0 setdash
2 LJ
2 LW
N
73 53.801 M
260.402 108.711 L
277.778 158.073 L
343.774 218.009 L
415.293 261.186 L
S
GR
GS
[1 0 0 1 73 53.80061] CT
0 0 1 RC
10.0 ML
2 LW
N
-2 -2 M
-2 2 L
2 2 L
2 -2 L
cp
S
GR
GS
[1 0 0 1 260.40167 108.71072] CT
0 0 1 RC
10.0 ML
2 LW
N
-2 -2 M
-2 2 L
2 2 L
2 -2 L
cp
S
GR
GS
[1 0 0 1 277.77753 158.07281] CT
0 0 1 RC
10.0 ML
2 LW
N
-2 -2 M
-2 2 L
2 2 L
2 -2 L
cp
S
GR
GS
[1 0 0 1 343.77356 218.00882] CT
0 0 1 RC
10.0 ML
2 LW
N
-2 -2 M
-2 2 L
2 2 L
2 -2 L
cp
S
GR
GS
[1 0 0 1 415.2934 261.18561] CT
0 0 1 RC
10.0 ML
2 LW
N
-2 -2 M
-2 2 L
2 2 L
2 -2 L
cp
S
GR
GS
1 LJ
2 LW
N
73 31.5 M
260.402 97.849 L
277.778 153.137 L
343.774 216.17 L
415.293 248.014 L
S
GR
GS
[1 0 0 1 73 31.5] CT
10.0 ML
2 LW
N
5 0 M
5 -2.761 2.761 -5 0 -5 C
-2.761 -5 -5 -2.761 -5 0 C
-5 2.761 -2.761 5 0 5 C
2.761 5 5 2.761 5 0 C
cp
S
GR
GS
[1 0 0 1 260.40167 97.84937] CT
10.0 ML
2 LW
N
5 0 M
5 -2.761 2.761 -5 0 -5 C
-2.761 -5 -5 -2.761 -5 0 C
-5 2.761 -2.761 5 0 5 C
2.761 5 5 2.761 5 0 C
cp
S
GR
GS
[1 0 0 1 277.77753 153.13731] CT
10.0 ML
2 LW
N
5 0 M
5 -2.761 2.761 -5 0 -5 C
-2.761 -5 -5 -2.761 -5 0 C
-5 2.761 -2.761 5 0 5 C
2.761 5 5 2.761 5 0 C
cp
S
GR
GS
[1 0 0 1 343.77356 216.17015] CT
10.0 ML
2 LW
N
5 0 M
5 -2.761 2.761 -5 0 -5 C
-2.761 -5 -5 -2.761 -5 0 C
-5 2.761 -2.761 5 0 5 C
2.761 5 5 2.761 5 0 C
cp
S
GR
GS
[1 0 0 1 415.2934 248.01443] CT
10.0 ML
2 LW
N
5 0 M
5 -2.761 2.761 -5 0 -5 C
-2.761 -5 -5 -2.761 -5 0 C
-5 2.761 -2.761 5 0 5 C
2.761 5 5 2.761 5 0 C
cp
S
GR
GS
1 GC
N
351 364.5 M
351 256 L
76.5 256 L
76.5 364.5 L
cp
f
GR
GS
[1 0 0 1 114.47174 271.19] CT
/Helvetica 17 F
GS
[1 0 0 1 0 0] CT
0 6.5 moveto 
1 -1 scale
(True error \(uniform ref\)) t 
GR
GR
GS
1 0 1 RC
1 LJ
2 LW
N
81.462 271.19 M
111.471 271.19 L
S
GR
GS
[1 0 0 1 96.46662 271.19] CT
1 0 1 RC
10.0 ML
2 LW
N
-4.755 -1.545 M
-1.176 -1.545 L
0 -5 L
1.176 -1.545 L
4.755 -1.545 L
1.902 0.618 L
2.939 4.045 L
0 2 L
-2.939 4.045 L
-1.902 0.618 L
cp
S
GR
GS
[1 0 0 1 114.47174 297.23001] CT
/Helvetica 17 F
GS
[1 0 0 1 0 0] CT
0 6.5 moveto 
1 -1 scale
(A posteriori error \(uniform ref\)) t 
GR
GR
GS
1 0 0 RC
[8 2 4 2] 0 setdash
2 LJ
2 LW
N
81.462 297.23 M
111.471 297.23 L
S
GR
GS
[1 0 0 1 96.46662 297.23001] CT
1 0 0 RC
10.0 ML
2 LW
N
0 -5 M
0 5 L
-5 0 M
5 0 L
S
GR
GS
[1 0 0 1 114.47174 323.26999] CT
/Helvetica 17 F
GS
[1 0 0 1 0 0] CT
0 6.5 moveto 
1 -1 scale
(True error \(adaptive ref\)) t 
GR
GR
GS
0 0 1 RC
[8 8] 0 setdash
2 LJ
2 LW
N
81.462 323.27 M
111.471 323.27 L
S
GR
GS
[1 0 0 1 96.46662 323.26999] CT
0 0 1 RC
10.0 ML
2 LW
N
-2 -2 M
-2 2 L
2 2 L
2 -2 L
cp
S
GR
GS
[1 0 0 1 114.47174 349.31] CT
/Helvetica 17 F
GS
[1 0 0 1 0 0] CT
0 6.5 moveto 
1 -1 scale
(A posteriori error \(adaptive ref\)) t 
GR
GR
GS
1 LJ
2 LW
N
81.462 349.31 M
111.471 349.31 L
S
GR
GS
[1 0 0 1 96.46662 349.31] CT
10.0 ML
2 LW
N
5 0 M
5 -2.761 2.761 -5 0 -5 C
-2.761 -5 -5 -2.761 -5 0 C
-5 2.761 -2.761 5 0 5 C
2.761 5 5 2.761 5 0 C
cp
S
GR
GS
0.149 GC
10.0 ML
0.5 LW
N
76.5 364.5 M
76.5 256 L
351 256 L
351 364.5 L
cp
S
GR
%%Trailer
%%Pages: 1
%%EOF
