# Fdb version 3
["bibtex main"] 1603976510 "main.aux" "main.bbl" "main" 1604923624
  "./elsarticle-num.bst" 1261046140 29353 cbd593ca59c003368735a9d8dbd22298 ""
  "main.aux" 1603976516 13312 d81af2f4f3800bfa8a0ada10593144f9 ""
  "mybibfile.bib" 1603974709 22168 7c90f21292e39e9052b0ea48696369fa ""
  (generated)
  "main.bbl"
  "main.blg"
["pdflatex"] 1603976510 "/Users/mebratuwakeni/repos/drafts/paper-1/main.tex" "/Users/mebratuwakeni/repos/drafts/paper-1/main.pdf" "main" 1604923624
  "/Users/mebratuwakeni/repos/drafts/paper-1/main.aux" 1603976516 13312 d81af2f4f3800bfa8a0ada10593144f9 ""
  "/Users/mebratuwakeni/repos/drafts/paper-1/main.tex" 1604923623 81096 d06fd2b84bccd37325af9fbbf7f21c79 ""
  "/usr/local/texlive/2018/texmf-dist/fonts/enc/dvips/cm-super/cm-super-ts1.enc" 1480098666 2900 1537cc8184ad1792082cd229ecc269f4 ""
  "/usr/local/texlive/2018/texmf-dist/fonts/map/fontname/texfonts.map" 1511824771 3332 103109f5612ad95229751940c61aada0 ""
  "/usr/local/texlive/2018/texmf-dist/fonts/tfm/adobe/symbol/psyr.tfm" 1480098689 1408 5937f58aa508ea2cea4901c07d10f5fe ""
  "/usr/local/texlive/2018/texmf-dist/fonts/tfm/adobe/zapfding/pzdr.tfm" 1480098689 1528 f853c4d1b4e0550255e02831fdc8496f ""
  "/usr/local/texlive/2018/texmf-dist/fonts/tfm/jknappen/ec/tcrm1200.tfm" 1480098696 1536 74b7293ec3713bb7fdca8dd1bd1f469c ""
  "/usr/local/texlive/2018/texmf-dist/fonts/tfm/public/amsfonts/cmextra/cmbsy5.tfm" 1480098698 1120 1e8878807317373affa7f7bba4cf2f6a ""
  "/usr/local/texlive/2018/texmf-dist/fonts/tfm/public/amsfonts/cmextra/cmbsy6.tfm" 1480098698 1124 14ccf5552bc7f77ca02a8a402bea8bfb ""
  "/usr/local/texlive/2018/texmf-dist/fonts/tfm/public/amsfonts/cmextra/cmbsy7.tfm" 1480098698 1120 7f9f170e8aa57527ad6c49feafd45d54 ""
  "/usr/local/texlive/2018/texmf-dist/fonts/tfm/public/amsfonts/cmextra/cmbsy8.tfm" 1480098698 1120 200be8b775682cdf80acad4be5ef57e4 ""
  "/usr/local/texlive/2018/texmf-dist/fonts/tfm/public/amsfonts/cmextra/cmex7.tfm" 1480098698 1004 54797486969f23fa377b128694d548df ""
  "/usr/local/texlive/2018/texmf-dist/fonts/tfm/public/amsfonts/cmextra/cmex8.tfm" 1480098698 988 bdf658c3bfc2d96d3c8b02cfc1c94c20 ""
  "/usr/local/texlive/2018/texmf-dist/fonts/tfm/public/amsfonts/cmextra/cmmib5.tfm" 1480098698 1496 c79f6914c6d39ffb3759967363d1be79 ""
  "/usr/local/texlive/2018/texmf-dist/fonts/tfm/public/amsfonts/cmextra/cmmib6.tfm" 1480098698 1516 a3bf6a5e7ec4401b1f52092dfaaed242 ""
  "/usr/local/texlive/2018/texmf-dist/fonts/tfm/public/amsfonts/cmextra/cmmib7.tfm" 1480098698 1508 6e807ff901c35a5f1fde0ca275533df8 ""
  "/usr/local/texlive/2018/texmf-dist/fonts/tfm/public/amsfonts/cmextra/cmmib8.tfm" 1480098698 1528 dab402b9d3774ca98baa037071cee7ae ""
  "/usr/local/texlive/2018/texmf-dist/fonts/tfm/public/amsfonts/symbols/msam10.tfm" 1480098698 916 f87d7c45f9c908e672703b83b72241a3 ""
  "/usr/local/texlive/2018/texmf-dist/fonts/tfm/public/amsfonts/symbols/msam5.tfm" 1480098698 924 9904cf1d39e9767e7a3622f2a125a565 ""
  "/usr/local/texlive/2018/texmf-dist/fonts/tfm/public/amsfonts/symbols/msam7.tfm" 1480098698 928 2dc8d444221b7a635bb58038579b861a ""
  "/usr/local/texlive/2018/texmf-dist/fonts/tfm/public/amsfonts/symbols/msbm10.tfm" 1480098698 908 2921f8a10601f252058503cc6570e581 ""
  "/usr/local/texlive/2018/texmf-dist/fonts/tfm/public/amsfonts/symbols/msbm5.tfm" 1480098698 940 75ac932a52f80982a9f8ea75d03a34cf ""
  "/usr/local/texlive/2018/texmf-dist/fonts/tfm/public/amsfonts/symbols/msbm7.tfm" 1480098698 940 228d6584342e91276bf566bcf9716b83 ""
  "/usr/local/texlive/2018/texmf-dist/fonts/tfm/public/bbold/bbold10.tfm" 1480098700 788 aa2bfd021367054a224c4cf5a9967398 ""
  "/usr/local/texlive/2018/texmf-dist/fonts/tfm/public/bbold/bbold12.tfm" 1480098700 768 568afddd613f4818fa95373954d5df42 ""
  "/usr/local/texlive/2018/texmf-dist/fonts/tfm/public/bbold/bbold5.tfm" 1480098700 764 6e384685b780f01b6a1744eb2db32b69 ""
  "/usr/local/texlive/2018/texmf-dist/fonts/tfm/public/bbold/bbold6.tfm" 1480098700 764 bc340104b2499eb440977e2d302aad8b ""
  "/usr/local/texlive/2018/texmf-dist/fonts/tfm/public/bbold/bbold7.tfm" 1480098700 788 cfc6f7349e03ca366560917be88c2027 ""
  "/usr/local/texlive/2018/texmf-dist/fonts/tfm/public/bbold/bbold8.tfm" 1480098700 768 b3927d32cc38bf306f676b7e9ddf7414 ""
  "/usr/local/texlive/2018/texmf-dist/fonts/tfm/public/cm/cmbsy10.tfm" 1480098701 1116 4e6ba9d7914baa6482fd69f67d126380 ""
  "/usr/local/texlive/2018/texmf-dist/fonts/tfm/public/cm/cmbx10.tfm" 1480098701 1328 c834bbb027764024c09d3d2bf908b5f0 ""
  "/usr/local/texlive/2018/texmf-dist/fonts/tfm/public/cm/cmbx12.tfm" 1480098701 1324 c910af8c371558dc20f2d7822f66fe64 ""
  "/usr/local/texlive/2018/texmf-dist/fonts/tfm/public/cm/cmbx5.tfm" 1480098701 1332 f817c21a1ba54560425663374f1b651a ""
  "/usr/local/texlive/2018/texmf-dist/fonts/tfm/public/cm/cmbx6.tfm" 1480098701 1344 8a0be4fe4d376203000810ad4dc81558 ""
  "/usr/local/texlive/2018/texmf-dist/fonts/tfm/public/cm/cmbx7.tfm" 1480098701 1336 3125ccb448c1a09074e3aa4a9832f130 ""
  "/usr/local/texlive/2018/texmf-dist/fonts/tfm/public/cm/cmbx8.tfm" 1480098701 1332 1fde11373e221473104d6cc5993f046e ""
  "/usr/local/texlive/2018/texmf-dist/fonts/tfm/public/cm/cmex10.tfm" 1480098701 992 662f679a0b3d2d53c1b94050fdaa3f50 ""
  "/usr/local/texlive/2018/texmf-dist/fonts/tfm/public/cm/cmmi12.tfm" 1480098701 1524 4414a8315f39513458b80dfc63bff03a ""
  "/usr/local/texlive/2018/texmf-dist/fonts/tfm/public/cm/cmmi6.tfm" 1480098701 1512 f21f83efb36853c0b70002322c1ab3ad ""
  "/usr/local/texlive/2018/texmf-dist/fonts/tfm/public/cm/cmmi8.tfm" 1480098701 1520 eccf95517727cb11801f4f1aee3a21b4 ""
  "/usr/local/texlive/2018/texmf-dist/fonts/tfm/public/cm/cmmib10.tfm" 1480098701 1524 554068197b70979a55370e6c6495f441 ""
  "/usr/local/texlive/2018/texmf-dist/fonts/tfm/public/cm/cmr10.tfm" 1480098701 1296 45809c5a464d5f32c8f98ba97c1bb47f ""
  "/usr/local/texlive/2018/texmf-dist/fonts/tfm/public/cm/cmr12.tfm" 1480098701 1288 655e228510b4c2a1abe905c368440826 ""
  "/usr/local/texlive/2018/texmf-dist/fonts/tfm/public/cm/cmr17.tfm" 1480098701 1292 296a67155bdbfc32aa9c636f21e91433 ""
  "/usr/local/texlive/2018/texmf-dist/fonts/tfm/public/cm/cmr6.tfm" 1480098701 1300 b62933e007d01cfd073f79b963c01526 ""
  "/usr/local/texlive/2018/texmf-dist/fonts/tfm/public/cm/cmr8.tfm" 1480098701 1292 21c1c5bfeaebccffdb478fd231a0997d ""
  "/usr/local/texlive/2018/texmf-dist/fonts/tfm/public/cm/cmsy10.tfm" 1480098701 1124 6c73e740cf17375f03eec0ee63599741 ""
  "/usr/local/texlive/2018/texmf-dist/fonts/tfm/public/cm/cmsy6.tfm" 1480098701 1116 933a60c408fc0a863a92debe84b2d294 ""
  "/usr/local/texlive/2018/texmf-dist/fonts/tfm/public/cm/cmsy8.tfm" 1480098701 1120 8b7d695260f3cff42e636090a8002094 ""
  "/usr/local/texlive/2018/texmf-dist/fonts/tfm/public/cm/cmti10.tfm" 1480098701 1480 aa8e34af0eb6a2941b776984cf1dfdc4 ""
  "/usr/local/texlive/2018/texmf-dist/fonts/tfm/public/cm/cmti12.tfm" 1480098701 1484 ed72f8f5cf654cda15ecc8e32bfcbee5 ""
  "/usr/local/texlive/2018/texmf-dist/fonts/tfm/public/cm/cmti7.tfm" 1480098701 1492 86331993fe614793f5e7e755835c31c5 ""
  "/usr/local/texlive/2018/texmf-dist/fonts/tfm/public/cm/cmtt10.tfm" 1480098701 768 1321e9409b4137d6fb428ac9dc956269 ""
  "/usr/local/texlive/2018/texmf-dist/fonts/tfm/public/rsfs/rsfs10.tfm" 1480098717 688 37338d6ab346c2f1466b29e195316aa4 ""
  "/usr/local/texlive/2018/texmf-dist/fonts/tfm/public/rsfs/rsfs5.tfm" 1480098717 684 3a51bd4fd9600428d5264cf25f04bb9a ""
  "/usr/local/texlive/2018/texmf-dist/fonts/tfm/public/rsfs/rsfs7.tfm" 1480098717 692 1b6510779f0f05e9cbf03e0f6c8361e6 ""
  "/usr/local/texlive/2018/texmf-dist/fonts/type1/public/amsfonts/cm/cmbx12.pfb" 1480098733 32080 340ef9bf63678554ee606688e7b5339d ""
  "/usr/local/texlive/2018/texmf-dist/fonts/type1/public/amsfonts/cm/cmex10.pfb" 1480098733 30251 6afa5cb1d0204815a708a080681d4674 ""
  "/usr/local/texlive/2018/texmf-dist/fonts/type1/public/amsfonts/cm/cmmi10.pfb" 1480098733 36299 5f9df58c2139e7edcf37c8fca4bd384d ""
  "/usr/local/texlive/2018/texmf-dist/fonts/type1/public/amsfonts/cm/cmmi12.pfb" 1480098733 36741 fa121aac0049305630cf160b86157ee4 ""
  "/usr/local/texlive/2018/texmf-dist/fonts/type1/public/amsfonts/cm/cmmi6.pfb" 1480098733 37166 8ab3487cbe3ab49ebce74c29ea2418db ""
  "/usr/local/texlive/2018/texmf-dist/fonts/type1/public/amsfonts/cm/cmmi7.pfb" 1480098733 36281 c355509802a035cadc5f15869451dcee ""
  "/usr/local/texlive/2018/texmf-dist/fonts/type1/public/amsfonts/cm/cmmi8.pfb" 1480098733 35469 70d41d2b9ea31d5d813066df7c99281c ""
  "/usr/local/texlive/2018/texmf-dist/fonts/type1/public/amsfonts/cm/cmmib10.pfb" 1480098733 36912 b448ef9ad9d7228ec3c6e71005136d55 ""
  "/usr/local/texlive/2018/texmf-dist/fonts/type1/public/amsfonts/cm/cmr10.pfb" 1480098733 35752 024fb6c41858982481f6968b5fc26508 ""
  "/usr/local/texlive/2018/texmf-dist/fonts/type1/public/amsfonts/cm/cmr12.pfb" 1480098733 32722 d7379af29a190c3f453aba36302ff5a9 ""
  "/usr/local/texlive/2018/texmf-dist/fonts/type1/public/amsfonts/cm/cmr17.pfb" 1480098733 32362 179c33bbf43f19adbb3825bb4e36e57a ""
  "/usr/local/texlive/2018/texmf-dist/fonts/type1/public/amsfonts/cm/cmr6.pfb" 1480098733 32734 69e00a6b65cedb993666e42eedb3d48f ""
  "/usr/local/texlive/2018/texmf-dist/fonts/type1/public/amsfonts/cm/cmr7.pfb" 1480098733 32762 224316ccc9ad3ca0423a14971cfa7fc1 ""
  "/usr/local/texlive/2018/texmf-dist/fonts/type1/public/amsfonts/cm/cmr8.pfb" 1480098733 32726 0a1aea6fcd6468ee2cf64d891f5c43c8 ""
  "/usr/local/texlive/2018/texmf-dist/fonts/type1/public/amsfonts/cm/cmsy10.pfb" 1480098733 32569 5e5ddc8df908dea60932f3c484a54c0d ""
  "/usr/local/texlive/2018/texmf-dist/fonts/type1/public/amsfonts/cm/cmsy5.pfb" 1480098733 32915 7bf7720c61a5b3a7ff25b0964421c9b6 ""
  "/usr/local/texlive/2018/texmf-dist/fonts/type1/public/amsfonts/cm/cmsy6.pfb" 1480098733 32587 1788b0c1c5b39540c96f5e42ccd6dae8 ""
  "/usr/local/texlive/2018/texmf-dist/fonts/type1/public/amsfonts/cm/cmsy7.pfb" 1480098733 32716 08e384dc442464e7285e891af9f45947 ""
  "/usr/local/texlive/2018/texmf-dist/fonts/type1/public/amsfonts/cm/cmsy8.pfb" 1480098733 32626 4f5c1b83753b1dd3a97d1b399a005b4b ""
  "/usr/local/texlive/2018/texmf-dist/fonts/type1/public/amsfonts/cm/cmti10.pfb" 1480098733 37944 359e864bd06cde3b1cf57bb20757fb06 ""
  "/usr/local/texlive/2018/texmf-dist/fonts/type1/public/amsfonts/cm/cmti12.pfb" 1480098733 36118 fad905eba93cff5bce1e185fe980a177 ""
  "/usr/local/texlive/2018/texmf-dist/fonts/type1/public/amsfonts/cm/cmti7.pfb" 1480098733 36607 d654cb3f2bc54f57509240071db3bffa ""
  "/usr/local/texlive/2018/texmf-dist/fonts/type1/public/amsfonts/cm/cmtt10.pfb" 1480098733 31099 c85edf1dd5b9e826d67c9c7293b6786c ""
  "/usr/local/texlive/2018/texmf-dist/fonts/type1/public/amsfonts/cmextra/cmmib8.pfb" 1480098733 35479 892d27442ef9ef29ce1ee57aa0e8a665 ""
  "/usr/local/texlive/2018/texmf-dist/fonts/type1/public/bbold-type1/bbold10.pfb" 1480098734 25452 d4e98a3bf6b13d4b7dcffd6302990a65 ""
  "/usr/local/texlive/2018/texmf-dist/fonts/type1/public/cm-super/sfrm1200.pfb" 1480098737 136101 f533469f523533d38317ab5729d00c8a ""
  "/usr/local/texlive/2018/texmf-dist/tex/context/base/mkii/supp-pdf.mkii" 1480098806 71627 94eb9990bed73c364d7f53f960cc8c5b ""
  "/usr/local/texlive/2018/texmf-dist/tex/generic/ifxetex/ifxetex.sty" 1480098815 1458 43ab4710dc82f3edeabecd0d099626b2 ""
  "/usr/local/texlive/2018/texmf-dist/tex/generic/oberdiek/etexcmds.sty" 1480098815 7612 729a8cc22a1ee0029997c7f74717ae05 ""
  "/usr/local/texlive/2018/texmf-dist/tex/generic/oberdiek/ifluatex.sty" 1480098815 7324 2310d1247db0114eb4726807c8837a0e ""
  "/usr/local/texlive/2018/texmf-dist/tex/generic/oberdiek/ifpdf.sty" 1490564930 1251 d170e11a3246c3392bc7f59595af42cb ""
  "/usr/local/texlive/2018/texmf-dist/tex/generic/oberdiek/ifvtex.sty" 1480098815 6797 90b7f83b0ad46826bc16058b1e3d48df ""
  "/usr/local/texlive/2018/texmf-dist/tex/generic/oberdiek/infwarerr.sty" 1480098815 8253 473e0e41f9adadb1977e8631b8f72ea6 ""
  "/usr/local/texlive/2018/texmf-dist/tex/generic/oberdiek/kvdefinekeys.sty" 1480098815 5152 b67a3a964ad9851e095110c854a1d461 ""
  "/usr/local/texlive/2018/texmf-dist/tex/generic/oberdiek/kvsetkeys.sty" 1480098815 14040 ac8866aac45982ac84021584b0abb252 ""
  "/usr/local/texlive/2018/texmf-dist/tex/generic/oberdiek/ltxcmds.sty" 1480098815 18425 5b3c0c59d76fac78978b5558e83c1f36 ""
  "/usr/local/texlive/2018/texmf-dist/tex/generic/oberdiek/pdftexcmds.sty" 1522444781 20418 ca44694be1c8df491925faa194fe6edf ""
  "/usr/local/texlive/2018/texmf-dist/tex/generic/pgf/basiclayer/pgfcore.code.tex" 1480098816 1006 b103be0bfc8c1682ff1fa9760697a329 ""
  "/usr/local/texlive/2018/texmf-dist/tex/generic/pgf/basiclayer/pgfcorearrows.code.tex" 1480098816 43226 167a99346bfe2676e3efcdde2d81fe45 ""
  "/usr/local/texlive/2018/texmf-dist/tex/generic/pgf/basiclayer/pgfcoreexternal.code.tex" 1480098816 19302 4f089dc590e71f7331e6d5b5ea85273b ""
  "/usr/local/texlive/2018/texmf-dist/tex/generic/pgf/basiclayer/pgfcoregraphicstate.code.tex" 1480098816 6068 edae1e768a7d8d8f0f00e953d2b0153e ""
  "/usr/local/texlive/2018/texmf-dist/tex/generic/pgf/basiclayer/pgfcoreimage.code.tex" 1480098816 7041 a891ad72049e17c4e366c40ca37b0ccb ""
  "/usr/local/texlive/2018/texmf-dist/tex/generic/pgf/basiclayer/pgfcorelayers.code.tex" 1480098816 4625 40c07e9f6f2f7c674704b3f2055560ce ""
  "/usr/local/texlive/2018/texmf-dist/tex/generic/pgf/basiclayer/pgfcoreobjects.code.tex" 1480098816 2631 7eefa6cdbefd8d4e2bad7262cf1094cd ""
  "/usr/local/texlive/2018/texmf-dist/tex/generic/pgf/basiclayer/pgfcorepathconstruct.code.tex" 1480098816 43477 81143b33d9ebafdeead07ede13372427 ""
  "/usr/local/texlive/2018/texmf-dist/tex/generic/pgf/basiclayer/pgfcorepathprocessing.code.tex" 1480098816 17436 8d99d4113be311daf23deff86991ee7d ""
  "/usr/local/texlive/2018/texmf-dist/tex/generic/pgf/basiclayer/pgfcorepathusage.code.tex" 1480098816 20772 c57e34db4aa7b1da013169d04b743eac ""
  "/usr/local/texlive/2018/texmf-dist/tex/generic/pgf/basiclayer/pgfcorepatterns.code.tex" 1480098816 9641 711f0edc22c180a5caf168b6e8970057 ""
  "/usr/local/texlive/2018/texmf-dist/tex/generic/pgf/basiclayer/pgfcorepoints.code.tex" 1480098816 34516 658a71478d21df554bce9d9cd436203a ""
  "/usr/local/texlive/2018/texmf-dist/tex/generic/pgf/basiclayer/pgfcorequick.code.tex" 1480098816 3052 e5672c657232fd63b0a9853b0746297c ""
  "/usr/local/texlive/2018/texmf-dist/tex/generic/pgf/basiclayer/pgfcorescopes.code.tex" 1480098816 16669 4ec6e40088fc6de6334b443fe2dc59f0 ""
  "/usr/local/texlive/2018/texmf-dist/tex/generic/pgf/basiclayer/pgfcoreshade.code.tex" 1480098816 21541 4cd19f8ff7dd74d5aa7d803a6397af84 ""
  "/usr/local/texlive/2018/texmf-dist/tex/generic/pgf/basiclayer/pgfcoretransformations.code.tex" 1480098816 19998 d77fef95c7369827753d17fd11be19c4 ""
  "/usr/local/texlive/2018/texmf-dist/tex/generic/pgf/basiclayer/pgfcoretransparency.code.tex" 1480098816 8943 2e2495b057f8f0035b5568394d489963 ""
  "/usr/local/texlive/2018/texmf-dist/tex/generic/pgf/frontendlayer/tikz/libraries/tikzlibrarytopaths.code.tex" 1480098816 11599 d694704a88e2f9007c996d3a6a4d629c ""
  "/usr/local/texlive/2018/texmf-dist/tex/generic/pgf/frontendlayer/tikz/tikz.code.tex" 1480098816 176652 1c2926908e2b356d454795c35385d580 ""
  "/usr/local/texlive/2018/texmf-dist/tex/generic/pgf/libraries/pgflibraryplothandlers.code.tex" 1480098816 32969 dbcfd5a7de6a0f7255c333ef60287d59 ""
  "/usr/local/texlive/2018/texmf-dist/tex/generic/pgf/math/pgfmath.code.tex" 1480098816 454 9e9e7c99f4da4f41698be21eaef4938e ""
  "/usr/local/texlive/2018/texmf-dist/tex/generic/pgf/math/pgfmathcalc.code.tex" 1480098816 13416 940ea6971d7a65dc440d3479939c66ae ""
  "/usr/local/texlive/2018/texmf-dist/tex/generic/pgf/math/pgfmathfloat.code.tex" 1480098816 94097 62ac62cda46eb715560dc27f9ed6e8b1 ""
  "/usr/local/texlive/2018/texmf-dist/tex/generic/pgf/math/pgfmathfunctions.base.code.tex" 1480098816 9375 5adc70f722abd29fc250d59e0694b548 ""
  "/usr/local/texlive/2018/texmf-dist/tex/generic/pgf/math/pgfmathfunctions.basic.code.tex" 1480098816 22069 7c21c42b15718ce922f36235be360490 ""
  "/usr/local/texlive/2018/texmf-dist/tex/generic/pgf/math/pgfmathfunctions.code.tex" 1480098816 8210 a7be5b52ef3d2c087b7dc3d52898b67e ""
  "/usr/local/texlive/2018/texmf-dist/tex/generic/pgf/math/pgfmathfunctions.comparison.code.tex" 1480098816 3534 c7f28fbac13616513e513efe93b8569b ""
  "/usr/local/texlive/2018/texmf-dist/tex/generic/pgf/math/pgfmathfunctions.integerarithmetics.code.tex" 1480098816 3167 7c9394e79aac27db96a92f9b2792b858 ""
  "/usr/local/texlive/2018/texmf-dist/tex/generic/pgf/math/pgfmathfunctions.misc.code.tex" 1480098816 9289 261407875b9dbb0194691c3eb893610f ""
  "/usr/local/texlive/2018/texmf-dist/tex/generic/pgf/math/pgfmathfunctions.random.code.tex" 1480098816 7078 946ddf4a7e57219b6afdbad98eb6731b ""
  "/usr/local/texlive/2018/texmf-dist/tex/generic/pgf/math/pgfmathfunctions.round.code.tex" 1480098816 2688 139c6abc86761a6190c2f4bef5d752be ""
  "/usr/local/texlive/2018/texmf-dist/tex/generic/pgf/math/pgfmathfunctions.trigonometric.code.tex" 1480098816 92284 dcf023dbaa84e6c50e11c2f79fe8cfa6 ""
  "/usr/local/texlive/2018/texmf-dist/tex/generic/pgf/math/pgfmathparser.code.tex" 1480098816 35430 046e15fbb65e74d8f0e7945f99741fdb ""
  "/usr/local/texlive/2018/texmf-dist/tex/generic/pgf/math/pgfmathutil.code.tex" 1480098816 7099 f44d505bae6c7c2b933cdd63441db4b9 ""
  "/usr/local/texlive/2018/texmf-dist/tex/generic/pgf/modules/pgfmodulematrix.code.tex" 1480098816 20934 2328bd2e04520e1ab077ac4ee13b8935 ""
  "/usr/local/texlive/2018/texmf-dist/tex/generic/pgf/modules/pgfmoduleplot.code.tex" 1480098816 16203 83cbe1220e389eeee283a6168f9a567b ""
  "/usr/local/texlive/2018/texmf-dist/tex/generic/pgf/modules/pgfmoduleshapes.code.tex" 1480098816 42906 d54376d96df1a2ae2d33fb722236d8e9 ""
  "/usr/local/texlive/2018/texmf-dist/tex/generic/pgf/systemlayer/pgf.cfg" 1480098816 978 15af626ebd3d4d790aac19170dac04f2 ""
  "/usr/local/texlive/2018/texmf-dist/tex/generic/pgf/systemlayer/pgfsys-common-pdf.def" 1480098816 5437 d91f93ed61ecdc57e119849b2d784a0b ""
  "/usr/local/texlive/2018/texmf-dist/tex/generic/pgf/systemlayer/pgfsys-pdftex.def" 1480098816 13507 809d848d9262638e1b1705a68a73c566 ""
  "/usr/local/texlive/2018/texmf-dist/tex/generic/pgf/systemlayer/pgfsys.code.tex" 1480098816 35113 2ccc50c1c9573e4bac9230d030f9c67c ""
  "/usr/local/texlive/2018/texmf-dist/tex/generic/pgf/systemlayer/pgfsysprotocol.code.tex" 1480098816 1983 b5994ebbcee17f1ba3d29bb1bd696fcf ""
  "/usr/local/texlive/2018/texmf-dist/tex/generic/pgf/systemlayer/pgfsyssoftpath.code.tex" 1480098816 7881 d459d6057e13d10ce7a227ae44b7295e ""
  "/usr/local/texlive/2018/texmf-dist/tex/generic/pgf/utilities/pgffor.code.tex" 1480098816 22211 d696ef78c12269178882d218b2cf191d ""
  "/usr/local/texlive/2018/texmf-dist/tex/generic/pgf/utilities/pgfkeys.code.tex" 1480098816 36194 e194ef4e0b396b531a3891feb4b1cc22 ""
  "/usr/local/texlive/2018/texmf-dist/tex/generic/pgf/utilities/pgfkeysfiltered.code.tex" 1480098816 33377 af391d6ad1bfcbe2278e191f48e43ba8 ""
  "/usr/local/texlive/2018/texmf-dist/tex/generic/pgf/utilities/pgfrcs.code.tex" 1480098816 2536 a3b0529d815a2759ba157b56610a6377 ""
  "/usr/local/texlive/2018/texmf-dist/tex/generic/pgf/utilities/pgfutil-common-lists.tex" 1480098816 6833 114eda2cf1d348e0e7e477a1a4dc1941 ""
  "/usr/local/texlive/2018/texmf-dist/tex/generic/pgf/utilities/pgfutil-common.tex" 1480098816 16501 ab0135765e27b6b8dae047831fe84818 ""
  "/usr/local/texlive/2018/texmf-dist/tex/generic/pgf/utilities/pgfutil-latex.def" 1480098816 5544 294baac9629ba59f675b1f2027ad7136 ""
  "/usr/local/texlive/2018/texmf-dist/tex/generic/unicode-data/CaseFolding.txt" 1498600549 78161 7893b6e005c5a521319a0d12062ae122 ""
  "/usr/local/texlive/2018/texmf-dist/tex/generic/unicode-data/SpecialCasing.txt" 1498600549 16830 e49d6f1fe536f43762ba1ecfe9e53e12 ""
  "/usr/local/texlive/2018/texmf-dist/tex/generic/unicode-data/UnicodeData.txt" 1498600549 1735010 2a52f30695dcc821f0f224650552beaf ""
  "/usr/local/texlive/2018/texmf-dist/tex/latex/algorithm2e/algorithm2e.sty" 1500498588 167160 d91cee26d3ef5727644d2110445741dd ""
  "/usr/local/texlive/2018/texmf-dist/tex/latex/amscls/amsthm.sty" 1513722769 12604 3dec726c041422879dc3268237f09026 ""
  "/usr/local/texlive/2018/texmf-dist/tex/latex/amsfonts/amsfonts.sty" 1480098820 5949 3f3fd50a8cc94c3d4cbf4fc66cd3df1c ""
  "/usr/local/texlive/2018/texmf-dist/tex/latex/amsfonts/amssymb.sty" 1480098820 13829 94730e64147574077f8ecfea9bb69af4 ""
  "/usr/local/texlive/2018/texmf-dist/tex/latex/amsfonts/umsa.fd" 1480098820 961 6518c6525a34feb5e8250ffa91731cff ""
  "/usr/local/texlive/2018/texmf-dist/tex/latex/amsfonts/umsb.fd" 1480098820 961 d02606146ba5601b5645f987c92e6193 ""
  "/usr/local/texlive/2018/texmf-dist/tex/latex/amsmath/amsbsy.sty" 1523134290 2211 ca7ce284ab93c8eecdc6029dc5ccbd73 ""
  "/usr/local/texlive/2018/texmf-dist/tex/latex/amsmath/amsgen.sty" 1523134290 4161 7f6eb9092061a11f87d08ed13515b48d ""
  "/usr/local/texlive/2018/texmf-dist/tex/latex/amsmath/amsmath.sty" 1523134290 84354 7292177bb735c466b78634ee4efd537e ""
  "/usr/local/texlive/2018/texmf-dist/tex/latex/amsmath/amsopn.sty" 1523134290 4116 32e6abd27229755a83a8b7f18e583890 ""
  "/usr/local/texlive/2018/texmf-dist/tex/latex/amsmath/amstext.sty" 1523134290 2432 8ff93b1137020e8f21930562a874ae66 ""
  "/usr/local/texlive/2018/texmf-dist/tex/latex/base/article.cls" 1523050425 19823 fcbc01552b07b608574cbf8e1977e0c0 ""
  "/usr/local/texlive/2018/texmf-dist/tex/latex/base/ifthen.sty" 1523050425 5161 c004ea5a189d4bdcf42e86754ad75a58 ""
  "/usr/local/texlive/2018/texmf-dist/tex/latex/base/size12.clo" 1523050425 8305 4e2a90a380a17c0472dd191689c67cbc ""
  "/usr/local/texlive/2018/texmf-dist/tex/latex/base/textcomp.sty" 1523050425 16156 c88fab7ab9716ccedc3dc1fa0f1f22da ""
  "/usr/local/texlive/2018/texmf-dist/tex/latex/base/ts1cmr.fd" 1523050425 2433 cdefd2509a12ba58001f2024f63aae9a ""
  "/usr/local/texlive/2018/texmf-dist/tex/latex/base/ts1enc.def" 1523050425 7769 97b639552068544f7c98d557abb19f41 ""
  "/usr/local/texlive/2018/texmf-dist/tex/latex/base/ts1enc.dfu" 1523050425 4973 a0ebe45f171b33c2df4e84416140511f ""
  "/usr/local/texlive/2018/texmf-dist/tex/latex/bbold/Ubbold.fd" 1480098821 1791 7d4e4adb94d2e4ed81c2c1d4be170c29 ""
  "/usr/local/texlive/2018/texmf-dist/tex/latex/bezos/accents.sty" 1480098822 6919 4d8e953be6e2c3cc4cc3d9942a582fd2 ""
  "/usr/local/texlive/2018/texmf-dist/tex/latex/caption/caption.sty" 1480098823 66233 8b81cfab95a1f8fc2f0f6c89415b087a ""
  "/usr/local/texlive/2018/texmf-dist/tex/latex/caption/caption3.sty" 1480098823 64866 1ea74c5f2d1685881497f021b8f186b2 ""
  "/usr/local/texlive/2018/texmf-dist/tex/latex/elsarticle/elsarticle.cls" 1480098827 24964 58a46f1c511cb12d424674f91526c55c ""
  "/usr/local/texlive/2018/texmf-dist/tex/latex/environ/environ.sty" 1480098827 4378 f429f0da968c278653359293040a8f52 ""
  "/usr/local/texlive/2018/texmf-dist/tex/latex/etoolbox/etoolbox.sty" 1518389458 43862 d90315ae4a46ef887a38b4ccba021f91 ""
  "/usr/local/texlive/2018/texmf-dist/tex/latex/geometry/geometry.sty" 1522012985 41366 3ed245b911039f45436c2cb62a4d1e62 ""
  "/usr/local/texlive/2018/texmf-dist/tex/latex/graphics-cfg/color.cfg" 1480098830 1213 620bba36b25224fa9b7e1ccb4ecb76fd ""
  "/usr/local/texlive/2018/texmf-dist/tex/latex/graphics-cfg/graphics.cfg" 1480098830 1224 978390e9c2234eab29404bc21b268d1e ""
  "/usr/local/texlive/2018/texmf-dist/tex/latex/graphics-def/pdftex.def" 1515537368 17334 520b9b85ad8a2a48eda3f643e27a5179 ""
  "/usr/local/texlive/2018/texmf-dist/tex/latex/graphics/color.sty" 1523134385 7028 112f909feb676788e7ea1c5b0b76320f ""
  "/usr/local/texlive/2018/texmf-dist/tex/latex/graphics/epsfig.sty" 1523134385 3390 371f3edde417b3763d7e25ed5bb647ec ""
  "/usr/local/texlive/2018/texmf-dist/tex/latex/graphics/graphics.sty" 1523134385 15272 5a97061616e0c8b2aa79c6615ff769f4 ""
  "/usr/local/texlive/2018/texmf-dist/tex/latex/graphics/graphicx.sty" 1523134385 9063 d0a305975932762117cd1f06a582f896 ""
  "/usr/local/texlive/2018/texmf-dist/tex/latex/graphics/keyval.sty" 1523134385 2591 6404d0c7d28505fb38ce0d86c2e28ae7 ""
  "/usr/local/texlive/2018/texmf-dist/tex/latex/graphics/trig.sty" 1523134385 3977 cb9221976ed8a183afad65b59aa8629a ""
  "/usr/local/texlive/2018/texmf-dist/tex/latex/ifoddpage/ifoddpage.sty" 1480098831 2148 0426cd8bb94163c1e23726d0c15e2c21 ""
  "/usr/local/texlive/2018/texmf-dist/tex/latex/jknapltx/mathbbol.sty" 1480098831 2195 a6c147c8620a492761ba9cd1bd10ff15 ""
  "/usr/local/texlive/2018/texmf-dist/tex/latex/jknapltx/mathrsfs.sty" 1480098831 300 12fa6f636b617656f2810ee82cb05015 ""
  "/usr/local/texlive/2018/texmf-dist/tex/latex/jknapltx/ursfs.fd" 1480098831 548 cc4e3557704bfed27c7002773fad6c90 ""
  "/usr/local/texlive/2018/texmf-dist/tex/latex/l3kernel/expl3-code.tex" 1520459456 867113 f5605c4d4f2279bfa8e8b2d1022f5044 ""
  "/usr/local/texlive/2018/texmf-dist/tex/latex/l3kernel/expl3.sty" 1520459456 9854 11189c16663a77dd8d9eaab3dc58cfa0 ""
  "/usr/local/texlive/2018/texmf-dist/tex/latex/l3kernel/l3pdfmode.def" 1520459456 12146 8810411827bd6704bae8ff539fe1fd5d ""
  "/usr/local/texlive/2018/texmf-dist/tex/latex/l3packages/xparse/xparse.sty" 1519337871 76828 accb53d91c291d3ec67841b8989ca15c ""
  "/usr/local/texlive/2018/texmf-dist/tex/latex/latexconfig/epstopdf-sys.cfg" 1480098833 678 4792914a8f45be57bb98413425e4c7af ""
  "/usr/local/texlive/2018/texmf-dist/tex/latex/mathtools/mathtools.sty" 1515449928 53430 0411f0481da6078e76fd7de46531d2e0 ""
  "/usr/local/texlive/2018/texmf-dist/tex/latex/mathtools/mhsetup.sty" 1496786006 5317 cf75154a8a7e6436f05a5be497f0b05e ""
  "/usr/local/texlive/2018/texmf-dist/tex/latex/ms/everyshi.sty" 1480098835 3878 6aa7c08ff2621006e0603349e40a30a8 ""
  "/usr/local/texlive/2018/texmf-dist/tex/latex/multirow/multirow.sty" 1480201744 5015 cd8d25106b58dfc16af57528a07d0bc9 ""
  "/usr/local/texlive/2018/texmf-dist/tex/latex/natbib/natbib.sty" 1480098835 45456 1c8843383c0bd05870c45fa0ebea6cc2 ""
  "/usr/local/texlive/2018/texmf-dist/tex/latex/oberdiek/epstopdf-base.sty" 1480098836 12095 5337833c991d80788a43d3ce26bd1c46 ""
  "/usr/local/texlive/2018/texmf-dist/tex/latex/oberdiek/epstopdf.sty" 1480098836 4167 fc50b4e5b185008bb9308b1ea4ce64d4 ""
  "/usr/local/texlive/2018/texmf-dist/tex/latex/oberdiek/grfext.sty" 1480098836 7075 2fe3d848bba95f139de11ded085e74aa ""
  "/usr/local/texlive/2018/texmf-dist/tex/latex/oberdiek/kvoptions.sty" 1480098836 22417 1d9df1eb66848aa31b18a593099cf45c ""
  "/usr/local/texlive/2018/texmf-dist/tex/latex/pgf/basiclayer/pgf.sty" 1480098837 1197 8a80cdde14696a9198f1793a55dcf332 ""
  "/usr/local/texlive/2018/texmf-dist/tex/latex/pgf/basiclayer/pgfcore.sty" 1480098837 410 5bf12ea7330e5f12c445332a4fe9a263 ""
  "/usr/local/texlive/2018/texmf-dist/tex/latex/pgf/compatibility/pgfcomp-version-0-65.sty" 1480098837 21115 facf03b7dbe5ea2f5f1dce1ac84b5d05 ""
  "/usr/local/texlive/2018/texmf-dist/tex/latex/pgf/compatibility/pgfcomp-version-1-18.sty" 1480098837 1091 d9163d29def82ee90370c8a63667742c ""
  "/usr/local/texlive/2018/texmf-dist/tex/latex/pgf/frontendlayer/tikz.sty" 1480098837 339 592cf35cba3d400082b8a9a5d0199d70 ""
  "/usr/local/texlive/2018/texmf-dist/tex/latex/pgf/math/pgfmath.sty" 1480098837 306 0796eafca5e159e6ec2167a6d22d81b1 ""
  "/usr/local/texlive/2018/texmf-dist/tex/latex/pgf/systemlayer/pgfsys.sty" 1480098837 443 0b2e781830192df35c0fd357cf13e26e ""
  "/usr/local/texlive/2018/texmf-dist/tex/latex/pgf/utilities/pgffor.sty" 1480098837 348 8927fde343487e003b01a4c2ca34073b ""
  "/usr/local/texlive/2018/texmf-dist/tex/latex/pgf/utilities/pgfkeys.sty" 1480098837 274 4cad6e665cc93ac2ac979039a94fa1e1 ""
  "/usr/local/texlive/2018/texmf-dist/tex/latex/pgf/utilities/pgfrcs.sty" 1480098837 325 2bcd023400636339210573e2b3ee298b ""
  "/usr/local/texlive/2018/texmf-dist/tex/latex/placeins/placeins.sty" 1480098837 4087 636308456f60d2b31cbf97867db5708d ""
  "/usr/local/texlive/2018/texmf-dist/tex/latex/psnfss/pifont.sty" 1480098837 2284 330328193b4aeb08dd45b0dd3e5ae732 ""
  "/usr/local/texlive/2018/texmf-dist/tex/latex/psnfss/upsy.fd" 1480098837 148 2da0acd77cba348f34823f44cabf0058 ""
  "/usr/local/texlive/2018/texmf-dist/tex/latex/psnfss/upzd.fd" 1480098837 148 b2a94082cb802f90d3daf6dd0c7188a0 ""
  "/usr/local/texlive/2018/texmf-dist/tex/latex/relsize/relsize.sty" 1480098838 15542 c4cc3164fe24f2f2fbb06eb71b1da4c4 ""
  "/usr/local/texlive/2018/texmf-dist/tex/latex/tcolorbox/tcbbreakable.code.tex" 1521755100 33103 a6618d1505cfd9a0572eb2c26899b224 ""
  "/usr/local/texlive/2018/texmf-dist/tex/latex/tcolorbox/tcbfitting.code.tex" 1521755100 14630 55f6b3cafc94b0b7c7362ecd0b4688e2 ""
  "/usr/local/texlive/2018/texmf-dist/tex/latex/tcolorbox/tcbhooks.code.tex" 1521755100 7824 5854060ad56a694b6eeb374daf8c4171 ""
  "/usr/local/texlive/2018/texmf-dist/tex/latex/tcolorbox/tcbraster.code.tex" 1521755100 8132 fcebe5acda76a09d7ce79e5f267ecfaa ""
  "/usr/local/texlive/2018/texmf-dist/tex/latex/tcolorbox/tcbskins.code.tex" 1521755100 84814 ef0e5d9130e8905c9f1b7b4a93d5acf6 ""
  "/usr/local/texlive/2018/texmf-dist/tex/latex/tcolorbox/tcbskinsjigsaw.code.tex" 1521755100 9020 bdcca21cba24590cba62dfaa5d5ff9a0 ""
  "/usr/local/texlive/2018/texmf-dist/tex/latex/tcolorbox/tcbtheorems.code.tex" 1521755100 8476 cdd486c3de51bf112048b3e3d20c1e44 ""
  "/usr/local/texlive/2018/texmf-dist/tex/latex/tcolorbox/tcbxparse.code.tex" 1521755100 9627 7e28f353a6ee623178271ad345027024 ""
  "/usr/local/texlive/2018/texmf-dist/tex/latex/tcolorbox/tcolorbox.sty" 1521755100 82856 7bb4a7ee381b7d824399cab54942f228 ""
  "/usr/local/texlive/2018/texmf-dist/tex/latex/tools/array.sty" 1523134385 13312 20cb94dd6e4c9ea3a77ebbd18724e5c4 ""
  "/usr/local/texlive/2018/texmf-dist/tex/latex/tools/bm.sty" 1523050425 12626 7d9d99d0bbe65f44cc0bb90f67262000 ""
  "/usr/local/texlive/2018/texmf-dist/tex/latex/tools/calc.sty" 1523050425 10212 357072c1d20578a30d6387d8a22e72ab ""
  "/usr/local/texlive/2018/texmf-dist/tex/latex/tools/verbatim.sty" 1523050425 7262 cf84171354dfa1855684c0946ff000f1 ""
  "/usr/local/texlive/2018/texmf-dist/tex/latex/tools/xspace.sty" 1523050425 4542 5251001fb2c96205905dbac86c51c5ab ""
  "/usr/local/texlive/2018/texmf-dist/tex/latex/trimspaces/trimspaces.sty" 1480098841 1380 971a51b00a14503ddf754cab24c3f209 ""
  "/usr/local/texlive/2018/texmf-dist/tex/latex/xcolor/xcolor.sty" 1480098843 55589 34128738f682d033422ca125f82e5d62 ""
  "/usr/local/texlive/2018/texmf-dist/web2c/texmf.cnf" 1522066949 33362 cf75436e19743e94a92a6b1b9183c434 ""
  "/usr/local/texlive/2018/texmf-var/fonts/map/pdftex/updmap/pdftex.map" 1523934492 2717033 f61a5287d9c22a39a74f1979fe3f905c ""
  "/usr/local/texlive/2018/texmf-var/web2c/pdftex/pdflatex.fmt" 1552475889 4220280 d26211882f93c4fec41c2c8d2879212d ""
  "/usr/local/texlive/2018/texmf.cnf" 1523934483 577 0b39adfd7c93507ff20c9c14c2f1a33f ""
  "images/adaptive_sequence.png" 1603751531 1237748 cbc0089a1bebeaa99fdaa44c7cd83dca ""
  "images/body_scketch.png" 1588634444 221342 f23a55d7a0d0eb038ec511031365e0bf ""
  "images/checkbd_plots.png" 1590364932 172721 9a2f835087eca89cb5ed9f41453a770b ""
  "images/checkerboard-mass-flux.png" 1589155131 1384612 8b8ca87b5d2eda8cc61520740a076368 ""
  "images/conv_mixVsStdP12.eps" 1603720743 99625 bb5712343ecd1570f321381dd1ea45d1 ""
  "images/conv_mixVsStdP34.eps" 1603721410 110646 4fc18db86ac08bbf79a595400bc92283 ""
  "images/conv_mixVstdP12_l2.eps" 1603717311 100803 8947096899ed80b5c3c11c0d2f2b20e0 ""
  "images/conv_mxdVstdP34_l2.eps" 1603719162 102410 3cd8174e6997c00badf6958c48e09081 ""
  "images/hetrogenous_domain.pdf" 1583342927 18835 3f0938e3862a98ec86cf7cd8a8603712 ""
  "images/init_checker.png" 1583857260 13337 447af70b113d8ad193e5ab7d7c2ae77b ""
  "images/non_uniform.png" 1603746219 2230040 770d37159dc57b1e048a44e7b50b1f9d ""
  "images/non_uniform_adaptive.eps" 1603743020 25215 b54383e7c50e7426dd6872dd1d49f2ef ""
  "images/rectanagle_patches.png" 1590368456 102036 c87734472ef897568e5536509af8b380 ""
  "images/reentry.png" 1589148515 347952 ac4a1ad923183c26e5b1e416046ac6ce ""
  "images/segregation_pattern.png" 1585771758 418469 5f0937ae72c9f2db4b824d4f486e4f12 ""
  "images/smooth_mass.png" 1572431117 181364 6966514c2bbe470381742d7555de52b6 ""
  "images/speed_comparison2.eps" 1588727185 149146 55a4164f382812087af93f218d1c6aea ""
  "images/spiral.png" 1603916779 437723 ad264a3e8f4d815f3562b09289702e2e ""
  "images/uniform_adaptive.eps" 1603900488 31734 dc53ff701ce880938693ff5cd09b7b46 ""
  "images/uniform_sequence.png" 1603753011 1791749 46ef4950f601dce575c3a99d34ff0471 ""
  "main.aux" 1603976516 13312 d81af2f4f3800bfa8a0ada10593144f9 ""
  "main.bbl" 1603976510 11737 865b65b3b5a67d696f1a76fd3790f49d "bibtex main"
  "main.spl" 1603976516 52 0ca680ac8018ceec3d4a411533a52578 ""
  "main.tex" 1604923623 81096 d06fd2b84bccd37325af9fbbf7f21c79 ""
  (generated)
  "main.spl"
  "main.log"
  "main.pdf"
  "/Users/mebratuwakeni/repos/drafts/paper-1/main.log"
  "/Users/mebratuwakeni/repos/drafts/paper-1/main.pdf"
  "main.aux"
