PWD /Users/mebratuwakeni/repos/drafts/paper-1
INPUT /usr/local/texlive/2018/texmf.cnf
INPUT /usr/local/texlive/2018/texmf-dist/web2c/texmf.cnf
INPUT /usr/local/texlive/2018/texmf-var/web2c/pdftex/pdflatex.fmt
INPUT /Users/mebratuwakeni/repos/drafts/paper-1/main.tex
OUTPUT /Users/mebratuwakeni/repos/drafts/paper-1/main.log
INPUT /usr/local/texlive/2018/texmf-dist/tex/latex/elsarticle/elsarticle.cls
INPUT /usr/local/texlive/2018/texmf-dist/tex/latex/elsarticle/elsarticle.cls
INPUT /usr/local/texlive/2018/texmf-dist/tex/latex/base/article.cls
INPUT /usr/local/texlive/2018/texmf-dist/tex/latex/base/article.cls
INPUT /usr/local/texlive/2018/texmf-dist/tex/latex/base/size12.clo
INPUT /usr/local/texlive/2018/texmf-dist/tex/latex/base/size12.clo
INPUT /usr/local/texlive/2018/texmf-dist/fonts/map/fontname/texfonts.map
INPUT /usr/local/texlive/2018/texmf-dist/fonts/tfm/public/cm/cmr12.tfm
INPUT /usr/local/texlive/2018/texmf-dist/tex/latex/graphics/graphicx.sty
INPUT /usr/local/texlive/2018/texmf-dist/tex/latex/graphics/graphicx.sty
INPUT /usr/local/texlive/2018/texmf-dist/tex/latex/graphics/keyval.sty
INPUT /usr/local/texlive/2018/texmf-dist/tex/latex/graphics/keyval.sty
INPUT /usr/local/texlive/2018/texmf-dist/tex/latex/graphics/graphics.sty
INPUT /usr/local/texlive/2018/texmf-dist/tex/latex/graphics/graphics.sty
INPUT /usr/local/texlive/2018/texmf-dist/tex/latex/graphics/trig.sty
INPUT /usr/local/texlive/2018/texmf-dist/tex/latex/graphics/trig.sty
INPUT /usr/local/texlive/2018/texmf-dist/tex/latex/graphics-cfg/graphics.cfg
INPUT /usr/local/texlive/2018/texmf-dist/tex/latex/graphics-cfg/graphics.cfg
INPUT /usr/local/texlive/2018/texmf-dist/tex/latex/graphics-def/pdftex.def
INPUT /usr/local/texlive/2018/texmf-dist/tex/latex/graphics-def/pdftex.def
INPUT /usr/local/texlive/2018/texmf-dist/tex/latex/psnfss/pifont.sty
INPUT /usr/local/texlive/2018/texmf-dist/tex/latex/psnfss/pifont.sty
INPUT /usr/local/texlive/2018/texmf-dist/tex/latex/psnfss/upzd.fd
INPUT /usr/local/texlive/2018/texmf-dist/tex/latex/psnfss/upzd.fd
INPUT /usr/local/texlive/2018/texmf-dist/fonts/tfm/adobe/zapfding/pzdr.tfm
INPUT /usr/local/texlive/2018/texmf-dist/tex/latex/psnfss/upsy.fd
INPUT /usr/local/texlive/2018/texmf-dist/tex/latex/psnfss/upsy.fd
INPUT /usr/local/texlive/2018/texmf-dist/fonts/tfm/adobe/symbol/psyr.tfm
INPUT /Users/mebratuwakeni/repos/drafts/paper-1/main.spl
INPUT /Users/mebratuwakeni/repos/drafts/paper-1/main.spl
INPUT /usr/local/texlive/2018/texmf-dist/tex/latex/natbib/natbib.sty
INPUT /usr/local/texlive/2018/texmf-dist/tex/latex/natbib/natbib.sty
OUTPUT /Users/mebratuwakeni/repos/drafts/paper-1/main.spl
INPUT /usr/local/texlive/2018/texmf-dist/tex/latex/geometry/geometry.sty
INPUT /usr/local/texlive/2018/texmf-dist/tex/latex/geometry/geometry.sty
INPUT /usr/local/texlive/2018/texmf-dist/tex/generic/oberdiek/ifpdf.sty
INPUT /usr/local/texlive/2018/texmf-dist/tex/generic/oberdiek/ifpdf.sty
INPUT /usr/local/texlive/2018/texmf-dist/tex/generic/oberdiek/ifvtex.sty
INPUT /usr/local/texlive/2018/texmf-dist/tex/generic/oberdiek/ifvtex.sty
INPUT /usr/local/texlive/2018/texmf-dist/tex/generic/ifxetex/ifxetex.sty
INPUT /usr/local/texlive/2018/texmf-dist/tex/generic/ifxetex/ifxetex.sty
INPUT /usr/local/texlive/2018/texmf-dist/tex/latex/jknapltx/mathbbol.sty
INPUT /usr/local/texlive/2018/texmf-dist/tex/latex/jknapltx/mathbbol.sty
INPUT /usr/local/texlive/2018/texmf-dist/tex/latex/algorithm2e/algorithm2e.sty
INPUT /usr/local/texlive/2018/texmf-dist/tex/latex/algorithm2e/algorithm2e.sty
INPUT /usr/local/texlive/2018/texmf-dist/tex/latex/base/ifthen.sty
INPUT /usr/local/texlive/2018/texmf-dist/tex/latex/base/ifthen.sty
INPUT /usr/local/texlive/2018/texmf-dist/tex/latex/ifoddpage/ifoddpage.sty
INPUT /usr/local/texlive/2018/texmf-dist/tex/latex/ifoddpage/ifoddpage.sty
INPUT /usr/local/texlive/2018/texmf-dist/tex/latex/tools/xspace.sty
INPUT /usr/local/texlive/2018/texmf-dist/tex/latex/tools/xspace.sty
INPUT /usr/local/texlive/2018/texmf-dist/tex/latex/relsize/relsize.sty
INPUT /usr/local/texlive/2018/texmf-dist/tex/latex/relsize/relsize.sty
INPUT /usr/local/texlive/2018/texmf-dist/tex/latex/amsmath/amsmath.sty
INPUT /usr/local/texlive/2018/texmf-dist/tex/latex/amsmath/amsmath.sty
INPUT /usr/local/texlive/2018/texmf-dist/tex/latex/amsmath/amstext.sty
INPUT /usr/local/texlive/2018/texmf-dist/tex/latex/amsmath/amstext.sty
INPUT /usr/local/texlive/2018/texmf-dist/tex/latex/amsmath/amsgen.sty
INPUT /usr/local/texlive/2018/texmf-dist/tex/latex/amsmath/amsgen.sty
INPUT /usr/local/texlive/2018/texmf-dist/tex/latex/amsmath/amsbsy.sty
INPUT /usr/local/texlive/2018/texmf-dist/tex/latex/amsmath/amsbsy.sty
INPUT /usr/local/texlive/2018/texmf-dist/tex/latex/amsmath/amsopn.sty
INPUT /usr/local/texlive/2018/texmf-dist/tex/latex/amsmath/amsopn.sty
INPUT /usr/local/texlive/2018/texmf-dist/tex/latex/tools/bm.sty
INPUT /usr/local/texlive/2018/texmf-dist/tex/latex/tools/bm.sty
INPUT /usr/local/texlive/2018/texmf-dist/tex/latex/bezos/accents.sty
INPUT /usr/local/texlive/2018/texmf-dist/tex/latex/bezos/accents.sty
INPUT /usr/local/texlive/2018/texmf-dist/tex/latex/amsfonts/amssymb.sty
INPUT /usr/local/texlive/2018/texmf-dist/tex/latex/amsfonts/amssymb.sty
INPUT /usr/local/texlive/2018/texmf-dist/tex/latex/amsfonts/amsfonts.sty
INPUT /usr/local/texlive/2018/texmf-dist/tex/latex/amsfonts/amsfonts.sty
INPUT /usr/local/texlive/2018/texmf-dist/tex/latex/mathtools/mathtools.sty
INPUT /usr/local/texlive/2018/texmf-dist/tex/latex/mathtools/mathtools.sty
INPUT /usr/local/texlive/2018/texmf-dist/tex/latex/tools/calc.sty
INPUT /usr/local/texlive/2018/texmf-dist/tex/latex/tools/calc.sty
INPUT /usr/local/texlive/2018/texmf-dist/tex/latex/mathtools/mhsetup.sty
INPUT /usr/local/texlive/2018/texmf-dist/tex/latex/mathtools/mhsetup.sty
INPUT /usr/local/texlive/2018/texmf-dist/tex/latex/jknapltx/mathrsfs.sty
INPUT /usr/local/texlive/2018/texmf-dist/tex/latex/jknapltx/mathrsfs.sty
INPUT /usr/local/texlive/2018/texmf-dist/tex/latex/tools/array.sty
INPUT /usr/local/texlive/2018/texmf-dist/tex/latex/tools/array.sty
INPUT /usr/local/texlive/2018/texmf-dist/tex/latex/base/textcomp.sty
INPUT /usr/local/texlive/2018/texmf-dist/tex/latex/base/textcomp.sty
INPUT /usr/local/texlive/2018/texmf-dist/tex/latex/base/ts1enc.def
INPUT /usr/local/texlive/2018/texmf-dist/tex/latex/base/ts1enc.def
INPUT /usr/local/texlive/2018/texmf-dist/tex/latex/base/ts1enc.dfu
INPUT /usr/local/texlive/2018/texmf-dist/tex/latex/base/ts1enc.dfu
INPUT /usr/local/texlive/2018/texmf-dist/tex/latex/multirow/multirow.sty
INPUT /usr/local/texlive/2018/texmf-dist/tex/latex/multirow/multirow.sty
INPUT /usr/local/texlive/2018/texmf-dist/tex/latex/amscls/amsthm.sty
INPUT /usr/local/texlive/2018/texmf-dist/tex/latex/amscls/amsthm.sty
INPUT /usr/local/texlive/2018/texmf-dist/tex/latex/graphics/color.sty
INPUT /usr/local/texlive/2018/texmf-dist/tex/latex/graphics/color.sty
INPUT /usr/local/texlive/2018/texmf-dist/tex/latex/graphics-cfg/color.cfg
INPUT /usr/local/texlive/2018/texmf-dist/tex/latex/graphics-cfg/color.cfg
INPUT /usr/local/texlive/2018/texmf-dist/tex/latex/graphics/epsfig.sty
INPUT /usr/local/texlive/2018/texmf-dist/tex/latex/graphics/epsfig.sty
INPUT /usr/local/texlive/2018/texmf-dist/tex/latex/placeins/placeins.sty
INPUT /usr/local/texlive/2018/texmf-dist/tex/latex/placeins/placeins.sty
INPUT /usr/local/texlive/2018/texmf-dist/tex/latex/caption/caption.sty
INPUT /usr/local/texlive/2018/texmf-dist/tex/latex/caption/caption.sty
INPUT /usr/local/texlive/2018/texmf-dist/tex/latex/caption/caption3.sty
INPUT /usr/local/texlive/2018/texmf-dist/tex/latex/caption/caption3.sty
INPUT /usr/local/texlive/2018/texmf-dist/tex/latex/oberdiek/epstopdf.sty
INPUT /usr/local/texlive/2018/texmf-dist/tex/latex/oberdiek/epstopdf.sty
INPUT /usr/local/texlive/2018/texmf-dist/tex/latex/oberdiek/epstopdf-base.sty
INPUT /usr/local/texlive/2018/texmf-dist/tex/latex/oberdiek/epstopdf-base.sty
INPUT /usr/local/texlive/2018/texmf-dist/tex/generic/oberdiek/infwarerr.sty
INPUT /usr/local/texlive/2018/texmf-dist/tex/generic/oberdiek/infwarerr.sty
INPUT /usr/local/texlive/2018/texmf-dist/tex/latex/oberdiek/grfext.sty
INPUT /usr/local/texlive/2018/texmf-dist/tex/latex/oberdiek/grfext.sty
INPUT /usr/local/texlive/2018/texmf-dist/tex/generic/oberdiek/kvdefinekeys.sty
INPUT /usr/local/texlive/2018/texmf-dist/tex/generic/oberdiek/kvdefinekeys.sty
INPUT /usr/local/texlive/2018/texmf-dist/tex/generic/oberdiek/ltxcmds.sty
INPUT /usr/local/texlive/2018/texmf-dist/tex/generic/oberdiek/ltxcmds.sty
INPUT /usr/local/texlive/2018/texmf-dist/tex/latex/oberdiek/kvoptions.sty
INPUT /usr/local/texlive/2018/texmf-dist/tex/latex/oberdiek/kvoptions.sty
INPUT /usr/local/texlive/2018/texmf-dist/tex/generic/oberdiek/kvsetkeys.sty
INPUT /usr/local/texlive/2018/texmf-dist/tex/generic/oberdiek/kvsetkeys.sty
INPUT /usr/local/texlive/2018/texmf-dist/tex/generic/oberdiek/etexcmds.sty
INPUT /usr/local/texlive/2018/texmf-dist/tex/generic/oberdiek/etexcmds.sty
INPUT /usr/local/texlive/2018/texmf-dist/tex/generic/oberdiek/ifluatex.sty
INPUT /usr/local/texlive/2018/texmf-dist/tex/generic/oberdiek/ifluatex.sty
INPUT /usr/local/texlive/2018/texmf-dist/tex/generic/oberdiek/pdftexcmds.sty
INPUT /usr/local/texlive/2018/texmf-dist/tex/generic/oberdiek/pdftexcmds.sty
INPUT /usr/local/texlive/2018/texmf-dist/tex/latex/latexconfig/epstopdf-sys.cfg
INPUT /usr/local/texlive/2018/texmf-dist/tex/latex/latexconfig/epstopdf-sys.cfg
INPUT /usr/local/texlive/2018/texmf-dist/tex/latex/tcolorbox/tcolorbox.sty
INPUT /usr/local/texlive/2018/texmf-dist/tex/latex/tcolorbox/tcolorbox.sty
INPUT /usr/local/texlive/2018/texmf-dist/tex/latex/pgf/basiclayer/pgf.sty
INPUT /usr/local/texlive/2018/texmf-dist/tex/latex/pgf/basiclayer/pgf.sty
INPUT /usr/local/texlive/2018/texmf-dist/tex/latex/pgf/utilities/pgfrcs.sty
INPUT /usr/local/texlive/2018/texmf-dist/tex/latex/pgf/utilities/pgfrcs.sty
INPUT /usr/local/texlive/2018/texmf-dist/tex/generic/pgf/utilities/pgfutil-common.tex
INPUT /usr/local/texlive/2018/texmf-dist/tex/generic/pgf/utilities/pgfutil-common-lists.tex
INPUT /usr/local/texlive/2018/texmf-dist/tex/generic/pgf/utilities/pgfutil-latex.def
INPUT /usr/local/texlive/2018/texmf-dist/tex/latex/ms/everyshi.sty
INPUT /usr/local/texlive/2018/texmf-dist/tex/latex/ms/everyshi.sty
INPUT /usr/local/texlive/2018/texmf-dist/tex/generic/pgf/utilities/pgfrcs.code.tex
INPUT /usr/local/texlive/2018/texmf-dist/tex/generic/pgf/utilities/pgfrcs.code.tex
INPUT /usr/local/texlive/2018/texmf-dist/tex/latex/pgf/basiclayer/pgfcore.sty
INPUT /usr/local/texlive/2018/texmf-dist/tex/latex/pgf/basiclayer/pgfcore.sty
INPUT /usr/local/texlive/2018/texmf-dist/tex/latex/pgf/systemlayer/pgfsys.sty
INPUT /usr/local/texlive/2018/texmf-dist/tex/latex/pgf/systemlayer/pgfsys.sty
INPUT /usr/local/texlive/2018/texmf-dist/tex/generic/pgf/systemlayer/pgfsys.code.tex
INPUT /usr/local/texlive/2018/texmf-dist/tex/generic/pgf/systemlayer/pgfsys.code.tex
INPUT /usr/local/texlive/2018/texmf-dist/tex/generic/pgf/utilities/pgfkeys.code.tex
INPUT /usr/local/texlive/2018/texmf-dist/tex/generic/pgf/utilities/pgfkeysfiltered.code.tex
INPUT /usr/local/texlive/2018/texmf-dist/tex/generic/pgf/systemlayer/pgf.cfg
INPUT /usr/local/texlive/2018/texmf-dist/tex/generic/pgf/systemlayer/pgfsys-pdftex.def
INPUT /usr/local/texlive/2018/texmf-dist/tex/generic/pgf/systemlayer/pgfsys-pdftex.def
INPUT /usr/local/texlive/2018/texmf-dist/tex/generic/pgf/systemlayer/pgfsys-common-pdf.def
INPUT /usr/local/texlive/2018/texmf-dist/tex/generic/pgf/systemlayer/pgfsyssoftpath.code.tex
INPUT /usr/local/texlive/2018/texmf-dist/tex/generic/pgf/systemlayer/pgfsyssoftpath.code.tex
INPUT /usr/local/texlive/2018/texmf-dist/tex/generic/pgf/systemlayer/pgfsysprotocol.code.tex
INPUT /usr/local/texlive/2018/texmf-dist/tex/generic/pgf/systemlayer/pgfsysprotocol.code.tex
INPUT /usr/local/texlive/2018/texmf-dist/tex/latex/xcolor/xcolor.sty
INPUT /usr/local/texlive/2018/texmf-dist/tex/latex/xcolor/xcolor.sty
INPUT /usr/local/texlive/2018/texmf-dist/tex/latex/graphics-cfg/color.cfg
INPUT /usr/local/texlive/2018/texmf-dist/tex/latex/graphics-cfg/color.cfg
INPUT /usr/local/texlive/2018/texmf-dist/tex/generic/pgf/basiclayer/pgfcore.code.tex
INPUT /usr/local/texlive/2018/texmf-dist/tex/generic/pgf/basiclayer/pgfcore.code.tex
INPUT /usr/local/texlive/2018/texmf-dist/tex/generic/pgf/math/pgfmath.code.tex
INPUT /usr/local/texlive/2018/texmf-dist/tex/generic/pgf/math/pgfmathcalc.code.tex
INPUT /usr/local/texlive/2018/texmf-dist/tex/generic/pgf/math/pgfmathutil.code.tex
INPUT /usr/local/texlive/2018/texmf-dist/tex/generic/pgf/math/pgfmathparser.code.tex
INPUT /usr/local/texlive/2018/texmf-dist/tex/generic/pgf/math/pgfmathfunctions.code.tex
INPUT /usr/local/texlive/2018/texmf-dist/tex/generic/pgf/math/pgfmathfunctions.basic.code.tex
INPUT /usr/local/texlive/2018/texmf-dist/tex/generic/pgf/math/pgfmathfunctions.trigonometric.code.tex
INPUT /usr/local/texlive/2018/texmf-dist/tex/generic/pgf/math/pgfmathfunctions.random.code.tex
INPUT /usr/local/texlive/2018/texmf-dist/tex/generic/pgf/math/pgfmathfunctions.comparison.code.tex
INPUT /usr/local/texlive/2018/texmf-dist/tex/generic/pgf/math/pgfmathfunctions.base.code.tex
INPUT /usr/local/texlive/2018/texmf-dist/tex/generic/pgf/math/pgfmathfunctions.round.code.tex
INPUT /usr/local/texlive/2018/texmf-dist/tex/generic/pgf/math/pgfmathfunctions.misc.code.tex
INPUT /usr/local/texlive/2018/texmf-dist/tex/generic/pgf/math/pgfmathfunctions.integerarithmetics.code.tex
INPUT /usr/local/texlive/2018/texmf-dist/tex/generic/pgf/math/pgfmathfloat.code.tex
INPUT /usr/local/texlive/2018/texmf-dist/tex/generic/pgf/basiclayer/pgfcorepoints.code.tex
INPUT /usr/local/texlive/2018/texmf-dist/tex/generic/pgf/basiclayer/pgfcorepathconstruct.code.tex
INPUT /usr/local/texlive/2018/texmf-dist/tex/generic/pgf/basiclayer/pgfcorepathusage.code.tex
INPUT /usr/local/texlive/2018/texmf-dist/tex/generic/pgf/basiclayer/pgfcorescopes.code.tex
INPUT /usr/local/texlive/2018/texmf-dist/tex/generic/pgf/basiclayer/pgfcoregraphicstate.code.tex
INPUT /usr/local/texlive/2018/texmf-dist/tex/generic/pgf/basiclayer/pgfcoretransformations.code.tex
INPUT /usr/local/texlive/2018/texmf-dist/tex/generic/pgf/basiclayer/pgfcorequick.code.tex
INPUT /usr/local/texlive/2018/texmf-dist/tex/generic/pgf/basiclayer/pgfcoreobjects.code.tex
INPUT /usr/local/texlive/2018/texmf-dist/tex/generic/pgf/basiclayer/pgfcorepathprocessing.code.tex
INPUT /usr/local/texlive/2018/texmf-dist/tex/generic/pgf/basiclayer/pgfcorearrows.code.tex
INPUT /usr/local/texlive/2018/texmf-dist/tex/generic/pgf/basiclayer/pgfcoreshade.code.tex
INPUT /usr/local/texlive/2018/texmf-dist/tex/generic/pgf/basiclayer/pgfcoreimage.code.tex
INPUT /usr/local/texlive/2018/texmf-dist/tex/generic/pgf/basiclayer/pgfcoreexternal.code.tex
INPUT /usr/local/texlive/2018/texmf-dist/tex/generic/pgf/basiclayer/pgfcorelayers.code.tex
INPUT /usr/local/texlive/2018/texmf-dist/tex/generic/pgf/basiclayer/pgfcoretransparency.code.tex
INPUT /usr/local/texlive/2018/texmf-dist/tex/generic/pgf/basiclayer/pgfcorepatterns.code.tex
INPUT /usr/local/texlive/2018/texmf-dist/tex/generic/pgf/modules/pgfmoduleshapes.code.tex
INPUT /usr/local/texlive/2018/texmf-dist/tex/generic/pgf/modules/pgfmoduleplot.code.tex
INPUT /usr/local/texlive/2018/texmf-dist/tex/latex/pgf/compatibility/pgfcomp-version-0-65.sty
INPUT /usr/local/texlive/2018/texmf-dist/tex/latex/pgf/compatibility/pgfcomp-version-0-65.sty
INPUT /usr/local/texlive/2018/texmf-dist/tex/latex/pgf/compatibility/pgfcomp-version-1-18.sty
INPUT /usr/local/texlive/2018/texmf-dist/tex/latex/pgf/compatibility/pgfcomp-version-1-18.sty
INPUT /usr/local/texlive/2018/texmf-dist/tex/latex/tools/verbatim.sty
INPUT /usr/local/texlive/2018/texmf-dist/tex/latex/tools/verbatim.sty
INPUT /usr/local/texlive/2018/texmf-dist/tex/latex/environ/environ.sty
INPUT /usr/local/texlive/2018/texmf-dist/tex/latex/environ/environ.sty
INPUT /usr/local/texlive/2018/texmf-dist/tex/latex/trimspaces/trimspaces.sty
INPUT /usr/local/texlive/2018/texmf-dist/tex/latex/trimspaces/trimspaces.sty
INPUT /usr/local/texlive/2018/texmf-dist/tex/latex/etoolbox/etoolbox.sty
INPUT /usr/local/texlive/2018/texmf-dist/tex/latex/etoolbox/etoolbox.sty
INPUT /usr/local/texlive/2018/texmf-dist/tex/latex/tcolorbox/tcbraster.code.tex
INPUT /usr/local/texlive/2018/texmf-dist/tex/latex/tcolorbox/tcbskins.code.tex
INPUT /usr/local/texlive/2018/texmf-dist/tex/latex/pgf/frontendlayer/tikz.sty
INPUT /usr/local/texlive/2018/texmf-dist/tex/latex/pgf/frontendlayer/tikz.sty
INPUT /usr/local/texlive/2018/texmf-dist/tex/latex/pgf/utilities/pgffor.sty
INPUT /usr/local/texlive/2018/texmf-dist/tex/latex/pgf/utilities/pgffor.sty
INPUT /usr/local/texlive/2018/texmf-dist/tex/latex/pgf/utilities/pgfkeys.sty
INPUT /usr/local/texlive/2018/texmf-dist/tex/latex/pgf/utilities/pgfkeys.sty
INPUT /usr/local/texlive/2018/texmf-dist/tex/generic/pgf/utilities/pgfkeys.code.tex
INPUT /usr/local/texlive/2018/texmf-dist/tex/generic/pgf/utilities/pgfkeys.code.tex
INPUT /usr/local/texlive/2018/texmf-dist/tex/latex/pgf/math/pgfmath.sty
INPUT /usr/local/texlive/2018/texmf-dist/tex/latex/pgf/math/pgfmath.sty
INPUT /usr/local/texlive/2018/texmf-dist/tex/generic/pgf/math/pgfmath.code.tex
INPUT /usr/local/texlive/2018/texmf-dist/tex/generic/pgf/math/pgfmath.code.tex
INPUT /usr/local/texlive/2018/texmf-dist/tex/generic/pgf/utilities/pgffor.code.tex
INPUT /usr/local/texlive/2018/texmf-dist/tex/generic/pgf/utilities/pgffor.code.tex
INPUT /usr/local/texlive/2018/texmf-dist/tex/generic/pgf/math/pgfmath.code.tex
INPUT /usr/local/texlive/2018/texmf-dist/tex/generic/pgf/frontendlayer/tikz/tikz.code.tex
INPUT /usr/local/texlive/2018/texmf-dist/tex/generic/pgf/frontendlayer/tikz/tikz.code.tex
INPUT /usr/local/texlive/2018/texmf-dist/tex/generic/pgf/libraries/pgflibraryplothandlers.code.tex
INPUT /usr/local/texlive/2018/texmf-dist/tex/generic/pgf/libraries/pgflibraryplothandlers.code.tex
INPUT /usr/local/texlive/2018/texmf-dist/tex/generic/pgf/modules/pgfmodulematrix.code.tex
INPUT /usr/local/texlive/2018/texmf-dist/tex/generic/pgf/frontendlayer/tikz/libraries/tikzlibrarytopaths.code.tex
INPUT /usr/local/texlive/2018/texmf-dist/tex/generic/pgf/frontendlayer/tikz/libraries/tikzlibrarytopaths.code.tex
INPUT /usr/local/texlive/2018/texmf-dist/tex/latex/tcolorbox/tcbskinsjigsaw.code.tex
INPUT /usr/local/texlive/2018/texmf-dist/tex/latex/tcolorbox/tcbbreakable.code.tex
INPUT /usr/local/texlive/2018/texmf-dist/tex/latex/tcolorbox/tcbhooks.code.tex
INPUT /usr/local/texlive/2018/texmf-dist/tex/latex/tcolorbox/tcbtheorems.code.tex
INPUT /usr/local/texlive/2018/texmf-dist/tex/latex/tcolorbox/tcbfitting.code.tex
INPUT /usr/local/texlive/2018/texmf-dist/tex/latex/tcolorbox/tcbxparse.code.tex
INPUT /usr/local/texlive/2018/texmf-dist/tex/latex/l3packages/xparse/xparse.sty
INPUT /usr/local/texlive/2018/texmf-dist/tex/latex/l3packages/xparse/xparse.sty
INPUT /usr/local/texlive/2018/texmf-dist/tex/latex/l3kernel/expl3.sty
INPUT /usr/local/texlive/2018/texmf-dist/tex/latex/l3kernel/expl3.sty
INPUT /usr/local/texlive/2018/texmf-dist/tex/latex/l3kernel/expl3-code.tex
INPUT /usr/local/texlive/2018/texmf-dist/tex/latex/l3kernel/expl3-code.tex
INPUT /usr/local/texlive/2018/texmf-dist/tex/generic/unicode-data/UnicodeData.txt
INPUT /usr/local/texlive/2018/texmf-dist/tex/generic/unicode-data/CaseFolding.txt
INPUT /usr/local/texlive/2018/texmf-dist/tex/generic/unicode-data/SpecialCasing.txt
INPUT /usr/local/texlive/2018/texmf-dist/fonts/tfm/public/cm/cmr10.tfm
INPUT /usr/local/texlive/2018/texmf-dist/fonts/tfm/public/cm/cmr10.tfm
INPUT /usr/local/texlive/2018/texmf-dist/fonts/tfm/public/cm/cmr10.tfm
INPUT /usr/local/texlive/2018/texmf-dist/fonts/tfm/public/cm/cmr10.tfm
INPUT /usr/local/texlive/2018/texmf-dist/fonts/tfm/public/cm/cmr10.tfm
INPUT /usr/local/texlive/2018/texmf-dist/fonts/tfm/public/cm/cmr10.tfm
INPUT /usr/local/texlive/2018/texmf-dist/fonts/tfm/public/cm/cmr10.tfm
INPUT /usr/local/texlive/2018/texmf-dist/fonts/tfm/public/cm/cmr10.tfm
INPUT /usr/local/texlive/2018/texmf-dist/tex/latex/l3kernel/l3pdfmode.def
INPUT /usr/local/texlive/2018/texmf-dist/tex/latex/l3kernel/l3pdfmode.def
INPUT /Users/mebratuwakeni/repos/drafts/paper-1/main.aux
INPUT /Users/mebratuwakeni/repos/drafts/paper-1/main.aux
OUTPUT /Users/mebratuwakeni/repos/drafts/paper-1/main.aux
INPUT /usr/local/texlive/2018/texmf-dist/tex/latex/base/ts1cmr.fd
INPUT /usr/local/texlive/2018/texmf-dist/tex/latex/base/ts1cmr.fd
INPUT /usr/local/texlive/2018/texmf-dist/tex/context/base/mkii/supp-pdf.mkii
INPUT /usr/local/texlive/2018/texmf-dist/tex/context/base/mkii/supp-pdf.mkii
INPUT /usr/local/texlive/2018/texmf-dist/fonts/tfm/public/cm/cmbx12.tfm
INPUT /usr/local/texlive/2018/texmf-dist/fonts/tfm/public/cm/cmr8.tfm
INPUT /usr/local/texlive/2018/texmf-dist/fonts/tfm/public/cm/cmr6.tfm
INPUT /usr/local/texlive/2018/texmf-dist/fonts/tfm/public/cm/cmmi12.tfm
INPUT /usr/local/texlive/2018/texmf-dist/fonts/tfm/public/cm/cmmi8.tfm
INPUT /usr/local/texlive/2018/texmf-dist/fonts/tfm/public/cm/cmmi6.tfm
INPUT /usr/local/texlive/2018/texmf-dist/fonts/tfm/public/cm/cmsy10.tfm
INPUT /usr/local/texlive/2018/texmf-dist/fonts/tfm/public/cm/cmsy8.tfm
INPUT /usr/local/texlive/2018/texmf-dist/fonts/tfm/public/cm/cmsy6.tfm
INPUT /usr/local/texlive/2018/texmf-dist/fonts/tfm/public/cm/cmex10.tfm
INPUT /usr/local/texlive/2018/texmf-dist/fonts/tfm/public/amsfonts/cmextra/cmex8.tfm
INPUT /usr/local/texlive/2018/texmf-dist/fonts/tfm/public/amsfonts/cmextra/cmex7.tfm
INPUT /usr/local/texlive/2018/texmf-dist/tex/latex/bbold/Ubbold.fd
INPUT /usr/local/texlive/2018/texmf-dist/tex/latex/bbold/Ubbold.fd
INPUT /usr/local/texlive/2018/texmf-dist/fonts/tfm/public/bbold/bbold12.tfm
INPUT /usr/local/texlive/2018/texmf-dist/fonts/tfm/public/bbold/bbold8.tfm
INPUT /usr/local/texlive/2018/texmf-dist/fonts/tfm/public/bbold/bbold6.tfm
INPUT /usr/local/texlive/2018/texmf-dist/fonts/tfm/public/cm/cmbx8.tfm
INPUT /usr/local/texlive/2018/texmf-dist/fonts/tfm/public/cm/cmbx6.tfm
INPUT /usr/local/texlive/2018/texmf-dist/fonts/tfm/public/cm/cmmib10.tfm
INPUT /usr/local/texlive/2018/texmf-dist/fonts/tfm/public/amsfonts/cmextra/cmmib8.tfm
INPUT /usr/local/texlive/2018/texmf-dist/fonts/tfm/public/amsfonts/cmextra/cmmib6.tfm
INPUT /usr/local/texlive/2018/texmf-dist/fonts/tfm/public/cm/cmbsy10.tfm
INPUT /usr/local/texlive/2018/texmf-dist/fonts/tfm/public/amsfonts/cmextra/cmbsy8.tfm
INPUT /usr/local/texlive/2018/texmf-dist/fonts/tfm/public/amsfonts/cmextra/cmbsy6.tfm
INPUT /usr/local/texlive/2018/texmf-dist/tex/latex/amsfonts/umsa.fd
INPUT /usr/local/texlive/2018/texmf-dist/tex/latex/amsfonts/umsa.fd
INPUT /usr/local/texlive/2018/texmf-dist/fonts/tfm/public/amsfonts/symbols/msam10.tfm
INPUT /usr/local/texlive/2018/texmf-dist/fonts/tfm/public/amsfonts/symbols/msam10.tfm
INPUT /usr/local/texlive/2018/texmf-dist/fonts/tfm/public/amsfonts/symbols/msam7.tfm
INPUT /usr/local/texlive/2018/texmf-dist/tex/latex/amsfonts/umsb.fd
INPUT /usr/local/texlive/2018/texmf-dist/tex/latex/amsfonts/umsb.fd
INPUT /usr/local/texlive/2018/texmf-dist/fonts/tfm/public/amsfonts/symbols/msbm10.tfm
INPUT /usr/local/texlive/2018/texmf-dist/fonts/tfm/public/amsfonts/symbols/msbm10.tfm
INPUT /usr/local/texlive/2018/texmf-dist/fonts/tfm/public/amsfonts/symbols/msbm7.tfm
INPUT /usr/local/texlive/2018/texmf-dist/tex/latex/jknapltx/ursfs.fd
INPUT /usr/local/texlive/2018/texmf-dist/tex/latex/jknapltx/ursfs.fd
INPUT /usr/local/texlive/2018/texmf-dist/fonts/tfm/public/rsfs/rsfs10.tfm
INPUT /usr/local/texlive/2018/texmf-dist/fonts/tfm/public/rsfs/rsfs10.tfm
INPUT /usr/local/texlive/2018/texmf-dist/fonts/tfm/public/rsfs/rsfs5.tfm
INPUT /usr/local/texlive/2018/texmf-dist/fonts/tfm/public/cm/cmti12.tfm
INPUT /usr/local/texlive/2018/texmf-dist/fonts/tfm/public/cm/cmr17.tfm
INPUT /usr/local/texlive/2018/texmf-dist/fonts/tfm/public/cm/cmti10.tfm
INPUT /usr/local/texlive/2018/texmf-dist/fonts/tfm/public/amsfonts/cmextra/cmex7.tfm
INPUT /usr/local/texlive/2018/texmf-dist/fonts/tfm/public/amsfonts/cmextra/cmex7.tfm
INPUT /usr/local/texlive/2018/texmf-dist/fonts/tfm/public/bbold/bbold10.tfm
INPUT /usr/local/texlive/2018/texmf-dist/fonts/tfm/public/bbold/bbold7.tfm
INPUT /usr/local/texlive/2018/texmf-dist/fonts/tfm/public/bbold/bbold5.tfm
INPUT /usr/local/texlive/2018/texmf-dist/fonts/tfm/public/cm/cmbx10.tfm
INPUT /usr/local/texlive/2018/texmf-dist/fonts/tfm/public/cm/cmbx7.tfm
INPUT /usr/local/texlive/2018/texmf-dist/fonts/tfm/public/cm/cmbx5.tfm
INPUT /usr/local/texlive/2018/texmf-dist/fonts/tfm/public/cm/cmmib10.tfm
INPUT /usr/local/texlive/2018/texmf-dist/fonts/tfm/public/amsfonts/cmextra/cmmib7.tfm
INPUT /usr/local/texlive/2018/texmf-dist/fonts/tfm/public/amsfonts/cmextra/cmmib5.tfm
INPUT /usr/local/texlive/2018/texmf-dist/fonts/tfm/public/cm/cmbsy10.tfm
INPUT /usr/local/texlive/2018/texmf-dist/fonts/tfm/public/amsfonts/cmextra/cmbsy7.tfm
INPUT /usr/local/texlive/2018/texmf-dist/fonts/tfm/public/amsfonts/cmextra/cmbsy5.tfm
INPUT /usr/local/texlive/2018/texmf-dist/fonts/tfm/public/amsfonts/symbols/msam10.tfm
INPUT /usr/local/texlive/2018/texmf-dist/fonts/tfm/public/amsfonts/symbols/msam7.tfm
INPUT /usr/local/texlive/2018/texmf-dist/fonts/tfm/public/amsfonts/symbols/msam5.tfm
INPUT /usr/local/texlive/2018/texmf-dist/fonts/tfm/public/amsfonts/symbols/msbm10.tfm
INPUT /usr/local/texlive/2018/texmf-dist/fonts/tfm/public/amsfonts/symbols/msbm7.tfm
INPUT /usr/local/texlive/2018/texmf-dist/fonts/tfm/public/amsfonts/symbols/msbm5.tfm
INPUT /usr/local/texlive/2018/texmf-dist/fonts/tfm/public/rsfs/rsfs10.tfm
INPUT /usr/local/texlive/2018/texmf-dist/fonts/tfm/public/rsfs/rsfs7.tfm
INPUT /usr/local/texlive/2018/texmf-dist/fonts/tfm/public/rsfs/rsfs5.tfm
INPUT /usr/local/texlive/2018/texmf-dist/fonts/tfm/public/cm/cmti7.tfm
OUTPUT /Users/mebratuwakeni/repos/drafts/paper-1/main.pdf
INPUT /usr/local/texlive/2018/texmf-var/fonts/map/pdftex/updmap/pdftex.map
INPUT /usr/local/texlive/2018/texmf-dist/fonts/tfm/jknappen/ec/tcrm1200.tfm
INPUT /Users/mebratuwakeni/repos/drafts/paper-1/images/body_scketch.png
INPUT /Users/mebratuwakeni/repos/drafts/paper-1/images/body_scketch.png
INPUT /Users/mebratuwakeni/repos/drafts/paper-1/images/body_scketch.png
INPUT /Users/mebratuwakeni/repos/drafts/paper-1/images/smooth_mass.png
INPUT /Users/mebratuwakeni/repos/drafts/paper-1/images/smooth_mass.png
INPUT /Users/mebratuwakeni/repos/drafts/paper-1/images/smooth_mass.png
INPUT /Users/mebratuwakeni/repos/drafts/paper-1/images/conv_mixVstdP12_l2.eps
INPUT /Users/mebratuwakeni/repos/drafts/paper-1/images/conv_mixVstdP12_l2.eps
INPUT /Users/mebratuwakeni/repos/drafts/paper-1/images/conv_mixVstdP12_l2.eps
INPUT /Users/mebratuwakeni/repos/drafts/paper-1/images/conv_mixVstdP12_l2-eps-converted-to.pdf
INPUT /Users/mebratuwakeni/repos/drafts/paper-1/images/conv_mixVstdP12_l2-eps-converted-to.pdf
INPUT /Users/mebratuwakeni/repos/drafts/paper-1/images/conv_mixVstdP12_l2.eps
INPUT /Users/mebratuwakeni/repos/drafts/paper-1/images/conv_mixVstdP12_l2-eps-converted-to.pdf
INPUT /Users/mebratuwakeni/repos/drafts/paper-1/images/conv_mixVstdP12_l2-eps-converted-to.pdf
INPUT /Users/mebratuwakeni/repos/drafts/paper-1/images/conv_mixVstdP12_l2-eps-converted-to.pdf
INPUT /Users/mebratuwakeni/repos/drafts/paper-1/images/conv_mxdVstdP34_l2.eps
INPUT /Users/mebratuwakeni/repos/drafts/paper-1/images/conv_mxdVstdP34_l2.eps
INPUT /Users/mebratuwakeni/repos/drafts/paper-1/images/conv_mxdVstdP34_l2.eps
INPUT /Users/mebratuwakeni/repos/drafts/paper-1/images/conv_mxdVstdP34_l2-eps-converted-to.pdf
INPUT /Users/mebratuwakeni/repos/drafts/paper-1/images/conv_mxdVstdP34_l2-eps-converted-to.pdf
INPUT /Users/mebratuwakeni/repos/drafts/paper-1/images/conv_mxdVstdP34_l2.eps
INPUT /Users/mebratuwakeni/repos/drafts/paper-1/images/conv_mxdVstdP34_l2-eps-converted-to.pdf
INPUT /Users/mebratuwakeni/repos/drafts/paper-1/images/conv_mxdVstdP34_l2-eps-converted-to.pdf
INPUT /Users/mebratuwakeni/repos/drafts/paper-1/images/conv_mxdVstdP34_l2-eps-converted-to.pdf
INPUT /Users/mebratuwakeni/repos/drafts/paper-1/images/conv_mixVsStdP12.eps
INPUT /Users/mebratuwakeni/repos/drafts/paper-1/images/conv_mixVsStdP12.eps
INPUT /Users/mebratuwakeni/repos/drafts/paper-1/images/conv_mixVsStdP12.eps
INPUT /Users/mebratuwakeni/repos/drafts/paper-1/images/conv_mixVsStdP12-eps-converted-to.pdf
INPUT /Users/mebratuwakeni/repos/drafts/paper-1/images/conv_mixVsStdP12-eps-converted-to.pdf
INPUT /Users/mebratuwakeni/repos/drafts/paper-1/images/conv_mixVsStdP12.eps
INPUT /Users/mebratuwakeni/repos/drafts/paper-1/images/conv_mixVsStdP12-eps-converted-to.pdf
INPUT /Users/mebratuwakeni/repos/drafts/paper-1/images/conv_mixVsStdP12-eps-converted-to.pdf
INPUT /Users/mebratuwakeni/repos/drafts/paper-1/images/conv_mixVsStdP12-eps-converted-to.pdf
INPUT /Users/mebratuwakeni/repos/drafts/paper-1/images/conv_mixVsStdP34.eps
INPUT /Users/mebratuwakeni/repos/drafts/paper-1/images/conv_mixVsStdP34.eps
INPUT /Users/mebratuwakeni/repos/drafts/paper-1/images/conv_mixVsStdP34.eps
INPUT /Users/mebratuwakeni/repos/drafts/paper-1/images/conv_mixVsStdP34-eps-converted-to.pdf
INPUT /Users/mebratuwakeni/repos/drafts/paper-1/images/conv_mixVsStdP34-eps-converted-to.pdf
INPUT /Users/mebratuwakeni/repos/drafts/paper-1/images/conv_mixVsStdP34.eps
INPUT /Users/mebratuwakeni/repos/drafts/paper-1/images/conv_mixVsStdP34-eps-converted-to.pdf
INPUT /Users/mebratuwakeni/repos/drafts/paper-1/images/conv_mixVsStdP34-eps-converted-to.pdf
INPUT /Users/mebratuwakeni/repos/drafts/paper-1/images/conv_mixVsStdP34-eps-converted-to.pdf
INPUT /Users/mebratuwakeni/repos/drafts/paper-1/images/uniform_adaptive.eps
INPUT /Users/mebratuwakeni/repos/drafts/paper-1/images/uniform_adaptive.eps
INPUT /Users/mebratuwakeni/repos/drafts/paper-1/images/uniform_adaptive.eps
INPUT /Users/mebratuwakeni/repos/drafts/paper-1/images/uniform_adaptive-eps-converted-to.pdf
INPUT /Users/mebratuwakeni/repos/drafts/paper-1/images/uniform_adaptive-eps-converted-to.pdf
INPUT /Users/mebratuwakeni/repos/drafts/paper-1/images/uniform_adaptive.eps
INPUT /Users/mebratuwakeni/repos/drafts/paper-1/images/uniform_adaptive-eps-converted-to.pdf
INPUT /Users/mebratuwakeni/repos/drafts/paper-1/images/uniform_adaptive-eps-converted-to.pdf
INPUT /Users/mebratuwakeni/repos/drafts/paper-1/images/uniform_adaptive-eps-converted-to.pdf
INPUT /Users/mebratuwakeni/repos/drafts/paper-1/images/uniform_sequence.png
INPUT /Users/mebratuwakeni/repos/drafts/paper-1/images/uniform_sequence.png
INPUT /Users/mebratuwakeni/repos/drafts/paper-1/images/uniform_sequence.png
INPUT /Users/mebratuwakeni/repos/drafts/paper-1/images/non_uniform.png
INPUT /Users/mebratuwakeni/repos/drafts/paper-1/images/non_uniform.png
INPUT /Users/mebratuwakeni/repos/drafts/paper-1/images/non_uniform.png
INPUT /Users/mebratuwakeni/repos/drafts/paper-1/images/non_uniform_adaptive.eps
INPUT /Users/mebratuwakeni/repos/drafts/paper-1/images/non_uniform_adaptive.eps
INPUT /Users/mebratuwakeni/repos/drafts/paper-1/images/non_uniform_adaptive.eps
INPUT /Users/mebratuwakeni/repos/drafts/paper-1/images/non_uniform_adaptive-eps-converted-to.pdf
INPUT /Users/mebratuwakeni/repos/drafts/paper-1/images/non_uniform_adaptive-eps-converted-to.pdf
INPUT /Users/mebratuwakeni/repos/drafts/paper-1/images/non_uniform_adaptive.eps
INPUT /Users/mebratuwakeni/repos/drafts/paper-1/images/non_uniform_adaptive-eps-converted-to.pdf
INPUT /Users/mebratuwakeni/repos/drafts/paper-1/images/non_uniform_adaptive-eps-converted-to.pdf
INPUT /Users/mebratuwakeni/repos/drafts/paper-1/images/non_uniform_adaptive-eps-converted-to.pdf
INPUT /Users/mebratuwakeni/repos/drafts/paper-1/images/adaptive_sequence.png
INPUT /Users/mebratuwakeni/repos/drafts/paper-1/images/adaptive_sequence.png
INPUT /Users/mebratuwakeni/repos/drafts/paper-1/images/adaptive_sequence.png
INPUT /Users/mebratuwakeni/repos/drafts/paper-1/images/hetrogenous_domain.pdf
INPUT /Users/mebratuwakeni/repos/drafts/paper-1/images/hetrogenous_domain.pdf
INPUT /Users/mebratuwakeni/repos/drafts/paper-1/images/hetrogenous_domain.pdf
INPUT /Users/mebratuwakeni/repos/drafts/paper-1/images/init_checker.png
INPUT /Users/mebratuwakeni/repos/drafts/paper-1/images/init_checker.png
INPUT /Users/mebratuwakeni/repos/drafts/paper-1/images/init_checker.png
INPUT /Users/mebratuwakeni/repos/drafts/paper-1/images/checkerboard-mass-flux.png
INPUT /Users/mebratuwakeni/repos/drafts/paper-1/images/checkerboard-mass-flux.png
INPUT /Users/mebratuwakeni/repos/drafts/paper-1/images/checkerboard-mass-flux.png
INPUT /Users/mebratuwakeni/repos/drafts/paper-1/images/checkbd_plots.png
INPUT /Users/mebratuwakeni/repos/drafts/paper-1/images/checkbd_plots.png
INPUT /Users/mebratuwakeni/repos/drafts/paper-1/images/checkbd_plots.png
INPUT /Users/mebratuwakeni/repos/drafts/paper-1/images/rectanagle_patches.png
INPUT /Users/mebratuwakeni/repos/drafts/paper-1/images/rectanagle_patches.png
INPUT /Users/mebratuwakeni/repos/drafts/paper-1/images/rectanagle_patches.png
INPUT /Users/mebratuwakeni/repos/drafts/paper-1/images/speed_comparison2.eps
INPUT /Users/mebratuwakeni/repos/drafts/paper-1/images/speed_comparison2.eps
INPUT /Users/mebratuwakeni/repos/drafts/paper-1/images/speed_comparison2.eps
INPUT /Users/mebratuwakeni/repos/drafts/paper-1/images/speed_comparison2-eps-converted-to.pdf
INPUT /Users/mebratuwakeni/repos/drafts/paper-1/images/speed_comparison2-eps-converted-to.pdf
INPUT /Users/mebratuwakeni/repos/drafts/paper-1/images/speed_comparison2.eps
INPUT /Users/mebratuwakeni/repos/drafts/paper-1/images/speed_comparison2-eps-converted-to.pdf
INPUT /Users/mebratuwakeni/repos/drafts/paper-1/images/speed_comparison2-eps-converted-to.pdf
INPUT /Users/mebratuwakeni/repos/drafts/paper-1/images/speed_comparison2-eps-converted-to.pdf
INPUT /Users/mebratuwakeni/repos/drafts/paper-1/images/segregation_pattern.png
INPUT /Users/mebratuwakeni/repos/drafts/paper-1/images/segregation_pattern.png
INPUT /Users/mebratuwakeni/repos/drafts/paper-1/images/segregation_pattern.png
INPUT /Users/mebratuwakeni/repos/drafts/paper-1/images/spiral.png
INPUT /Users/mebratuwakeni/repos/drafts/paper-1/images/spiral.png
INPUT /Users/mebratuwakeni/repos/drafts/paper-1/images/spiral.png
INPUT /Users/mebratuwakeni/repos/drafts/paper-1/images/reentry.png
INPUT /Users/mebratuwakeni/repos/drafts/paper-1/images/reentry.png
INPUT /Users/mebratuwakeni/repos/drafts/paper-1/images/reentry.png
INPUT /Users/mebratuwakeni/repos/drafts/paper-1/main.bbl
INPUT /Users/mebratuwakeni/repos/drafts/paper-1/main.bbl
INPUT /usr/local/texlive/2018/texmf-dist/fonts/tfm/public/cm/cmtt10.tfm
INPUT /Users/mebratuwakeni/repos/drafts/paper-1/main.aux
INPUT /usr/local/texlive/2018/texmf-dist/fonts/enc/dvips/cm-super/cm-super-ts1.enc
INPUT /usr/local/texlive/2018/texmf-dist/fonts/type1/public/bbold-type1/bbold10.pfb
INPUT /usr/local/texlive/2018/texmf-dist/fonts/type1/public/amsfonts/cm/cmbx12.pfb
INPUT /usr/local/texlive/2018/texmf-dist/fonts/type1/public/amsfonts/cm/cmex10.pfb
INPUT /usr/local/texlive/2018/texmf-dist/fonts/type1/public/amsfonts/cm/cmmi10.pfb
INPUT /usr/local/texlive/2018/texmf-dist/fonts/type1/public/amsfonts/cm/cmmi12.pfb
INPUT /usr/local/texlive/2018/texmf-dist/fonts/type1/public/amsfonts/cm/cmmi6.pfb
INPUT /usr/local/texlive/2018/texmf-dist/fonts/type1/public/amsfonts/cm/cmmi7.pfb
INPUT /usr/local/texlive/2018/texmf-dist/fonts/type1/public/amsfonts/cm/cmmi8.pfb
INPUT /usr/local/texlive/2018/texmf-dist/fonts/type1/public/amsfonts/cm/cmmib10.pfb
INPUT /usr/local/texlive/2018/texmf-dist/fonts/type1/public/amsfonts/cmextra/cmmib8.pfb
INPUT /usr/local/texlive/2018/texmf-dist/fonts/type1/public/amsfonts/cm/cmr10.pfb
INPUT /usr/local/texlive/2018/texmf-dist/fonts/type1/public/amsfonts/cm/cmr12.pfb
INPUT /usr/local/texlive/2018/texmf-dist/fonts/type1/public/amsfonts/cm/cmr17.pfb
INPUT /usr/local/texlive/2018/texmf-dist/fonts/type1/public/amsfonts/cm/cmr6.pfb
INPUT /usr/local/texlive/2018/texmf-dist/fonts/type1/public/amsfonts/cm/cmr7.pfb
INPUT /usr/local/texlive/2018/texmf-dist/fonts/type1/public/amsfonts/cm/cmr8.pfb
INPUT /usr/local/texlive/2018/texmf-dist/fonts/type1/public/amsfonts/cm/cmsy10.pfb
INPUT /usr/local/texlive/2018/texmf-dist/fonts/type1/public/amsfonts/cm/cmsy5.pfb
INPUT /usr/local/texlive/2018/texmf-dist/fonts/type1/public/amsfonts/cm/cmsy6.pfb
INPUT /usr/local/texlive/2018/texmf-dist/fonts/type1/public/amsfonts/cm/cmsy7.pfb
INPUT /usr/local/texlive/2018/texmf-dist/fonts/type1/public/amsfonts/cm/cmsy8.pfb
INPUT /usr/local/texlive/2018/texmf-dist/fonts/type1/public/amsfonts/cm/cmti10.pfb
INPUT /usr/local/texlive/2018/texmf-dist/fonts/type1/public/amsfonts/cm/cmti12.pfb
INPUT /usr/local/texlive/2018/texmf-dist/fonts/type1/public/amsfonts/cm/cmti7.pfb
INPUT /usr/local/texlive/2018/texmf-dist/fonts/type1/public/amsfonts/cm/cmtt10.pfb
INPUT /usr/local/texlive/2018/texmf-dist/fonts/type1/public/cm-super/sfrm1200.pfb
